{                                     
  "fournisseur": "OpenQuizzDB - Fournisseur de contenu libre (https://www.openquizzdb.org)",
  "rédacteur": "Philippe Bresoux",
  "thème": "Animaux en vrac (Les animaux sont les anges de cette terre)",         
  "difficulté": "2 / 5",
  "quizz": {
    "fr": {
      "débutant": [
      {
        "id": 1,
        "question": "Pourquoi les ours polaires se couchent-ils dans la neige lorsqu'ils courent ?",
        "propositions": [
          "Manger",
          "Se rafraîchir",
          "Se reposer",
          "Dormir"
        ],
        "réponse": "Se rafraîchir",
        "anecdote": "Les ours polaires peuvent rapidement avoir trop chaud sous leur fourrure très épaisse et leur couche de graisse isolante."
      },
      {
        "id": 2,
        "question": "Quelle partie du corps permet aux hippocampes de nager ?",
        "propositions": [
          "Queue",
          "Nageoire ventrale",
          "Nageoire dorsale",
          "Tête"
        ],
        "réponse": "Nageoire dorsale",
        "anecdote": "Malgré qu'ils soient des poissons, les hippocampes ne nagent que très lentement en effectuant des mouvements onduleux."
      },
      {
        "id": 3,
        "question": "Pour quelle raison ne pouvons-nous pas entendre les cris de la chauve-souris ?",
        "propositions": [
          "Trop grave",
          "Trop aigu",
          "Trop fort",
          "Trop faible"
        ],
        "réponse": "Trop aigu",
        "anecdote": "Les chauves-souris émettent et reçoivent des ultrasons que notre oreille ne peut percevoir (max 20 000 hertz)."
      },
      {
        "id": 4,
        "question": "À quoi servait la coquille du tridacne géant dans de nombreuses églises ?",
        "propositions": [
          "Bénitier",
          "Corbeille à pain",
          "Tronc",
          "Chandelier"
        ],
        "réponse": "Bénitier",
        "anecdote": "Il y a 300 ans, les coquilles étaient considérées comme des objets précieux et servaient de bénitier à l'entrée des églises."
      },
      {
        "id": 5,
        "question": "Quelle lourde et pénible tâche incombe à la reine des fourmis ?",
        "propositions": [
          "Défendre le nid",
          "Chercher à manger",
          "Tuer les mâles",
          "Pondre des oeufs"
        ],
        "réponse": "Pondre des oeufs",
        "anecdote": "La reine est la seule fourmi du nid à pondre des oeufs qui sont en réalité des larves écloses dont naîtront les futures fourmis."
      },
      {
        "id": 6,
        "question": "Qu'est-ce que les coccinelles aiment tout particulièrement manger ?",
        "propositions": [
          "Pucerons",
          "Pétales",
          "Éxcréments",
          "Écorces"
        ],
        "réponse": "Pucerons",
        "anecdote": "Considérées comme animaux utiles, on élève les coccinelles puis on les utilise pour combattre écologiquement les parasites."
      },
      {
        "id": 7,
        "question": "Pour quelle raison les nécrophores se battent-ils entre eux ?",
        "propositions": [
          "Un territoire",
          "Des cadavres",
          "Des femelles",
          "De l'or"
        ],
        "réponse": "Des cadavres",
        "anecdote": "Un couple de nécrophores enterre un animal mort dans le sol et y pond ses oeufs dont les larves sont nourries."
      },
      {
        "id": 8,
        "question": "De quel type d'environnement un acarien a-t-il besoin pour vivre ?",
        "propositions": [
          "Humide",
          "Ensoleillé",
          "Gras",
          "Sec"
        ],
        "réponse": "Humide",
        "anecdote": "Sans les acariens, qui nichent dans nos matelas et les endroits humides, les forêts seraient submergées de feuilles mortes."
      },
      {
        "id": 9,
        "question": "Quelle partie du corps de la limace lui permet-elle de découper les plantes ?",
        "propositions": [
          "Palais",
          "Dents",
          "Langue",
          "Bras"
        ],
        "réponse": "Langue",
        "anecdote": "Telle une lime, la langue rêche de la limace râpe les plantes tendres en petits morceaux et dépouille ainsi les jeunes salades."
      },
      {
        "id": 10,
        "question": "Quelle partie du corps montre le loup le plus faible après une lutte pour la hiérarchie ?",
        "propositions": [
          "Sa queue",
          "Ses dents",
          "Sa langue",
          "Son ventre"
        ],
        "réponse": "Son ventre",
        "anecdote": "Le loup inférieur n'est ainsi pas blessé mais devra à l'avenir se soumettre au mâle dominant, selon leur hiérarchie prononcée."
      }
    ],
    "confirmé": [
      {
        "id": 11,
        "question": "Quelle est la cause de mortalité la plus fréquente chez les éléphants en liberté ?",
        "propositions": [
          "Maladie",
          "Trompe cassée",
          "Usure des dents",
          "Morsure de lion"
        ],
        "réponse": "Usure des dents",
        "anecdote": "Lorsque la dernière molaire est usée par la mastication, l'éléphant ne peut plus se nourrir suffisamment et meurt tristement de faim."
      },
      {
        "id": 12,
        "question": "Grâce à quelle partie de son corps la taupe s'oriente-t-elle sous terre ?",
        "propositions": [
          "Oreilles",
          "Yeux",
          "Museau",
          "Vibrisses"
        ],
        "réponse": "Vibrisses",
        "anecdote": "Les taupes s'orientent presque exclusivement en utilisant une sorte de moustaches et tâtent leur nourriture de cette manière."
      },
      {
        "id": 13,
        "question": "À part le cheval, à quel autre animal le tapir est-il apparenté ?",
        "propositions": [
          "Éléphant",
          "Cochon",
          "Rhinocéros",
          "Hamster"
        ],
        "réponse": "Rhinocéros",
        "anecdote": "Les tapirs, de la famille des ongulés, utilisent leur trompe comme main et peuvent ainsi la rétracter lorsque celle-ci les gêne."
      },
      {
        "id": 14,
        "question": "Comment les mille-pattes se protègent-ils de leurs prédateurs ?",
        "propositions": [
          "En criant",
          "En mordant",
          "Par camouflage",
          "Par leurs sécrétions"
        ],
        "réponse": "Par leurs sécrétions",
        "anecdote": "En cas de danger, les mille-pattes émettent une substance rouge caustique à l'odeur nauséabonde via des glandes sur leurs anneaux."
      },
      {
        "id": 15,
        "question": "Quels animaux volent souvent aux hyènes la proie qu'elles ont chassée ?",
        "propositions": [
          "Buffles",
          "Lions",
          "Gnous",
          "Guépards"
        ],
        "réponse": "Lions",
        "anecdote": "Les hyènes chassent généralement en meute d'environ quarante individus des animaux tels que les zèbres ou les gnous."
      },
      {
        "id": 16,
        "question": "Combien pèse environ la plus petite espèce de musaraigne connue ?",
        "propositions": [
          "20 grammes",
          "130 grammes",
          "2 grammes",
          "70 grammes"
        ],
        "réponse": "2 grammes",
        "anecdote": "Notre musaraigne pygmée locale est, quant à elle, deux fois plus grande et plus lourde que ce pachyure étrusque."
      },
      {
        "id": 17,
        "question": "De quelle manière le lynx a-t-il l'habitude de marquer son territoire ?",
        "propositions": [
          "Excréments",
          "Souris mortes",
          "Éraflures",
          "Poils"
        ],
        "réponse": "Éraflures",
        "anecdote": "Outre des éraflures, les lynx utilisent parfois également leur urine comme marque odorante afin de délimiter leur domaine."
      },
      {
        "id": 18,
        "question": "Taillé pour la course, jusqu'à quelle vitesse un guépard peut-il courir ?",
        "propositions": [
          "120 km/h",
          "60 km/h",
          "90 km/h",
          "150 km/h"
        ],
        "réponse": "120 km/h",
        "anecdote": "Le plus rapide des animaux ne peut maintenir cette vitesse que sur quelques centaines de mètres, laissant une chance aux gazelles."
      },
      {
        "id": 19,
        "question": "Comment les cloportes se protègent-ils des attaques ?",
        "propositions": [
          "En s'envolant",
          "En s'enroulant",
          "En s'enfuyant",
          "En s'enterrant"
        ],
        "réponse": "En s'enroulant",
        "anecdote": "Le corps d'un cloporte, dans ce cas immobile, est composé de plusieurs anneaux solides qui rappellent une armure de chevalier."
      },
      {
        "id": 20,
        "question": "Quel animal est le plus grand ennemi connu de la buse variable ?",
        "propositions": [
          "Aigle",
          "Ours brun",
          "Renard",
          "Homme"
        ],
        "réponse": "Homme",
        "anecdote": "De nombreuses buses sont écrasées par l'homme lorsqu'elles tentent de récupérer des cadavres d'animaux sur les autoroutes."
      }
    ],
    "expert": [
      {
        "id": 21,
        "question": "Après combien de temps un bébé tigre reçoit-il de la viande pour la première fois ?",
        "propositions": [
          "Six ans",
          "Un an",
          "Un mois",
          "Six mois"
        ],
        "réponse": "Six mois",
        "anecdote": "Au cours des six premiers mois, les bébés tigres qui ne connaissent pas leur père sont allaités par leur mère."
      },
      {
        "id": 22,
        "question": "Combien de litres de lait une vache performante produit-elle chaque jour ?",
        "propositions": [
          "5 l",
          "35 l",
          "25 l",
          "15 l"
        ],
        "réponse": "35 l",
        "anecdote": "Ces vaches fortement exploitées souffrent le plus souvent d'une inflammation des pis et nécessitent beaucoup de médicaments."
      },
      {
        "id": 23,
        "question": "De quelle fonction vitale le fennec peut-il étonnamment se passer ?",
        "propositions": [
          "Voir",
          "Boire",
          "Manger",
          "Dormir"
        ],
        "réponse": "Boire",
        "anecdote": "Le liquide que le fennec absorbe grâce à son alimentation lui suffit et est donc admirablement adapté à la vie dans le désert."
      },
      {
        "id": 24,
        "question": "Quel est le plus grand des aras parmi les perroquets connus à ce jour ?",
        "propositions": [
          "Hyacinthe",
          "Macao",
          "Ararauna",
          "Chloroptère"
        ],
        "réponse": "Hyacinthe",
        "anecdote": "Ce perroquet d'environ 150 cm, queue comprise, possède un plumage bleu clair uni et vit principalement en Bolivie et au Brésil."
      },
      {
        "id": 25,
        "question": "De manière générale, combien d'heures par jour un panda géant est-il occupé à manger ?",
        "propositions": [
          "Huit",
          "Seize",
          "Quatre",
          "Douze"
        ],
        "réponse": "Seize",
        "anecdote": "Le panda géant mange uniquement des jeunes pousses de bambou mais celles-ci ne sont toutefois pas très nourrissantes."
      },
      {
        "id": 26,
        "question": "Combien de temps un bébé morse est-il allaité par sa mère ?",
        "propositions": [
          "1 mois",
          "6 mois",
          "18 mois",
          "1 an"
        ],
        "réponse": "18 mois",
        "anecdote": "Après une période de 12 mois de gestation, le bébé morse pèse plus de 50 kg et sait déjà nager au bout de deux semaines seulement."
      },
      {
        "id": 27,
        "question": "Pour quelle raison les martres tuent-elles parfois les poules ?",
        "propositions": [
          "Cuisses",
          "Pattes",
          "Foie",
          "Sang"
        ],
        "réponse": "Sang",
        "anecdote": "Les martres boivent uniquement le sang et laissent le reste, préférant manger des lapins, des oeufs, des lézards ou des insectes."
      },
      {
        "id": 28,
        "question": "De quoi est constituée la sonnette du serpent à sonnette ?",
        "propositions": [
          "Calcaire",
          "Corne",
          "Pierres",
          "Bois"
        ],
        "réponse": "Corne",
        "anecdote": "Les six à dix anneaux de corne situés à l'extrémité de la queue du serpent à sonnette proviennent des mues précédentes."
      },
      {
        "id": 29,
        "question": "Durant quelle saison de l'année peut-on entendre le hibou crier ?",
        "propositions": [
          "Été",
          "Automne",
          "Hiver",
          "Printemps"
        ],
        "réponse": "Printemps",
        "anecdote": "Le hibou mâle crie en avril et en mai pour attirer l'attention d'une femelle qui restera alors toute sa vie fidèlement à ses côtés."
      },
      {
        "id": 30,
        "question": "De combien de piquants est composée la fourrure du hérisson mâle ?",
        "propositions": [
          "16 000",
          "8 000",
          "4 000",
          "12 000"
        ],
        "réponse": "16 000",
        "anecdote": "En cas de danger, le hérisson peut ainsi dresser ses nombreux piquants et s'enrouler sur lui-même pour se protéger des ennemis."
      }
    ]
    },
    "en": {
      "débutant": [
      {
        "id": 1,
        "question": "Why do polar bears lie in the snow when they run ?",
        "propositions": [
          "Sleeping",
          "To refresh",
          "To rest",
          "To eat"
        ],
        "réponse": "To refresh",
        "anecdote": "Polar bears can quickly become too hot under their very thick fur and their layer of insulating fat."
      },
      {
        "id": 2,
        "question": "What part of the body allows seahorses to swim ?",
        "propositions": [
          "Head",
          "Dorsal fin",
          "Tail",
          "Ventral fin"
        ],
        "réponse": "Dorsal fin",
        "anecdote": "Although they are fish, seahorses swim very slowly with wavy movements."
      },
      {
        "id": 3,
        "question": "Why can not we hear the cries of the bat ?",
        "propositions": [
          "Too acute",
          "Too weak",
          "Too strong",
          "Too serious"
        ],
        "réponse": "Too acute",
        "anecdote": "The bats emit and receive ultrasounds that our ear can not perceive (max 20 000 hertz)."
      },
      {
        "id": 4,
        "question": "What was the name of the giant tridacne shell in many churches ?",
        "propositions": [
          "Chandelier",
          "Betonier",
          "Trunk",
          "Bread basket"
        ],
        "réponse": "Betonier",
        "anecdote": "300 years ago, shells were considered precious objects and served as a bene fi t at the entrances to churches."
      },
      {
        "id": 5,
        "question": "What heavy and painful task lies with the queen of ants ?",
        "propositions": [
          "Kill the males",
          "Defend the nest",
          "Lay eggs",
          "Seeking to eat"
        ],
        "réponse": "Lay eggs",
        "anecdote": "The queen is the only ant in the nest to hatch eggs, which are actually hatched larvae from which the future ants will be born."
      },
      {
        "id": 6,
        "question": "What do ladybirds especially like to eat ?",
        "propositions": [
          "Aphids",
          "Petals",
          "Elécces",
          "Crystals"
        ],
        "réponse": "Aphids",
        "anecdote": "Considered useful animals, ladybugs are raised and then used to fight pests ecologically."
      },
      {
        "id": 7,
        "question": "Why do the necrophores fight each other ?",
        "propositions": [
          "Females",
          "Territory",
          "Corpses",
          "Gold"
        ],
        "réponse": "Corpses",
        "anecdote": "A couple of necrophores bury a dead animal in the ground and lay eggs there whose larvae are fed."
      },
      {
        "id": 8,
        "question": "What kind of environment does a mite need to live ?",
        "propositions": [
          "Sec",
          "Sunny",
          "Wet",
          "Fat"
        ],
        "réponse": "Wet",
        "anecdote": "Without the mites, which nest in our mattresses but especially in damp places, the forests would be submerged with dead leaves."
      },
      {
        "id": 9,
        "question": "What part of the body of the slug does it allow to cut the plants ?",
        "propositions": [
          "Bras",
          "Language",
          "Teeth",
          "Palace"
        ],
        "réponse": "Language",
        "anecdote": "Like a file, the slug's sluggish tongue grows the tender plants into small pieces and thus strips the young salads."
      },
      {
        "id": 10,
        "question": "What does the weakest wolf show after a fight for the hierarchy ?",
        "propositions": [
          "His cock",
          "His language",
          "His teeth",
          "Her belly"
        ],
        "réponse": "Her belly",
        "anecdote": "The lower wolf is thus not injured but will in the future have to submit to the dominant mate, according to their pronounced hierarchy."
      }
    ],
    "confirmé": [
      {
        "id": 11,
        "question": "What is the most common cause of death among elephants in freedom ?",
        "propositions": [
          "Disease",
          "Wear of teeth",
          "Broken trumpet",
          "Bite of snakes"
        ],
        "réponse": "Wear of teeth",
        "anecdote": "When the last molar is worn out by chewing, the elephant can no longer feed enough and dies sadly of hunger."
      },
      {
        "id": 12,
        "question": "With what part of her body does the mole move under the ground ?",
        "propositions": [
          "Vibrisses",
          "Ears",
          "Muzzle",
          "Eyes"
        ],
        "réponse": "Vibrisses",
        "anecdote": "The moles orient themselves almost exclusively by using a kind of mustache and kill their food in this way."
      },
      {
        "id": 13,
        "question": "Apart from the horse, which other animal is the tapir related to ?",
        "propositions": [
          "Rhinoceros",
          "Pig",
          "Hamster",
          "Elephant"
        ],
        "réponse": "Rhinoceros",
        "anecdote": "The tapirs, of the family of the ungulates, use their trunk like hand and can thus retract it when this one disturbs them."
      },
      {
        "id": 14,
        "question": "How do millipedes protect themselves from their predators ?",
        "propositions": [
          "Shouting",
          "By their secretations",
          "By camouflage",
          "By biting"
        ],
        "réponse": "By their secretations",
        "anecdote": "In case of danger, the centipedes emit a caustic red substance to the nauseating odor abounds via glands on their rings."
      },
      {
        "id": 15,
        "question": "Which animals often steal from hyenas the prey they have hunted ?",
        "propositions": [
          "Lions",
          "Buffalo",
          "Guards",
          "Wildebeest"
        ],
        "réponse": "Lions",
        "anecdote": "Hyenas usually hunt in packs of about forty individuals of animals such as zebras or wildebeest."
      },
      {
        "id": 16,
        "question": "How much is about the smallest species of shrew known ?",
        "propositions": [
          "70 grams",
          "2 grams",
          "20 grams",
          "130 grams"
        ],
        "réponse": "2 grams",
        "anecdote": "Our local pygmy shrew is about twice as big and heavier than this peculiar shrimp."
      },
      {
        "id": 17,
        "question": "How does the lynx usually mark its territory ?",
        "propositions": [
          "Erections",
          "Dead mice",
          "Excrement",
          "Hair"
        ],
        "réponse": "Erections",
        "anecdote": "In addition to scuffing, lynxes sometimes also use their urine as a scent mark to define their area."
      },
      {
        "id": 18,
        "question": "Cut for the race, how fast can a hurdle run ?",
        "propositions": [
          "60 km / h",
          "90 km / h",
          "150 km / h",
          "120 km / h"
        ],
        "réponse": "120 km / h",
        "anecdote": "The fastest animal can only maintain this speed for a few hundred meters, giving the gazelles a chance."
      },
      {
        "id": 19,
        "question": "How do sowbugs protect themselves from attacks ?",
        "propositions": [
          "By flying away",
          "By wrapping up",
          "By burying himself",
          "In flight"
        ],
        "réponse": "By wrapping up",
        "anecdote": "The body of a woodlouse, in this case immobile, is composed of several solid rings that recall a knight's armor."
      },
      {
        "id": 20,
        "question": "Which animal is the biggest known enemy of the variable nozzle ?",
        "propositions": [
          "Renard",
          "Man",
          "Brown bear",
          "Aigle"
        ],
        "réponse": "Man",
        "anecdote": "Many buzzards are crushed by humans as they attempt to recover dead animals from highways."
      }
    ],
    "expert": [
      {
        "id": 21,
        "question": "After how long does a baby get meat for the first time ?",
        "propositions": [
          "Six months",
          "Six years",
          "One year",
          "One month"
        ],
        "réponse": "Six months",
        "anecdote": "In the first six months, baby tigers who do not know their father are breastfed by their mother."
      },
      {
        "id": 22,
        "question": "How many liters of milk does a high-performance cow produce each day ?",
        "propositions": [
          "5",
          "25",
          "35",
          "15"
        ],
        "réponse": "35",
        "anecdote": "These heavily exploited cows most often suffer from inflammation of the udders and require many medications."
      },
      {
        "id": 23,
        "question": "What vital function can the fennec amazingly do without ?",
        "propositions": [
          "Sleeping",
          "Drink",
          "See",
          "To eat"
        ],
        "réponse": "Drink",
        "anecdote": "The liquid that the fennec absorbs thanks to its diet is enough for him and is therefore admirably adapted to life in the desert."
      },
      {
        "id": 24,
        "question": "What is the largest of the macaws among the parrots known to date ?",
        "propositions": [
          "Chloroptera",
          "Ararauna",
          "Macao",
          "Hyacinthe"
        ],
        "réponse": "Hyacinthe",
        "anecdote": "This parrot of about 150 cm, tail included, has a plain blue plumage and lives mainly in Bolivia and Brazil."
      },
      {
        "id": 25,
        "question": "In general, how many hours a day is a giant panda busy eating ?",
        "propositions": [
          "Sixteen",
          "Four",
          "Eight",
          "Twelve"
        ],
        "réponse": "Sixteen",
        "anecdote": "The giant panda eats only young bamboo shoots but these are not very nutritious."
      },
      {
        "id": 26,
        "question": "How long is a baby boy breastfed by his mother ?",
        "propositions": [
          "1 month",
          "1 year",
          "6 months",
          "18 months"
        ],
        "réponse": "18 months",
        "anecdote": "After a period of 12 months of gestation, the baby walrus weighs more than 50 kg and can already swim after only two weeks."
      },
      {
        "id": 27,
        "question": "Why do martens sometimes kill chickens ?",
        "propositions": [
          "Liver",
          "Blood",
          "Thighs",
          "Paws"
        ],
        "réponse": "Blood",
        "anecdote": "Martens only drink blood and leave the rest, preferring to eat rabbits, eggs, lettuce or insects."
      },
      {
        "id": 28,
        "question": "What is the bell of the rattlesnake made of ?",
        "propositions": [
          "Limestone",
          "Horn",
          "Wood",
          "Stones"
        ],
        "réponse": "Horn",
        "anecdote": "The six to ten rings of horn located at the end of the rattlesnake's tail come from the previous moults."
      },
      {
        "id": 29,
        "question": "During what season of the year can we hear the owl scream ?",
        "propositions": [
          "Spring",
          "Summer",
          "Autumn",
          "Winter"
        ],
        "réponse": "Spring",
        "anecdote": "The owl shrieks in April and May to attract the attention of a female who will then remain loyal to his side all his life."
      },
      {
        "id": 30,
        "question": "How many quills is composed of the fur of the male hedgehog ?",
        "propositions": [
          "4,000",
          "8,000",
          "12,000",
          "16,000"
        ],
        "réponse": "16,000",
        "anecdote": "In case of danger, the hedgehog can set its many quills and curl up on itself to protect the enemies."
      }
    ]
    },
    "de": {
      "débutant": [
      {
        "id": 1,
        "question": "Warum liegen Eisbären beim Laufen im Schnee ?",
        "propositions": [
          "Sich ausruhen",
          "Zu aktualisieren",
          "Zu essen",
          "Schlafen"
        ],
        "réponse": "Zu aktualisieren",
        "anecdote": "Eisbären können unter ihrem sehr dicken Fell und ihrer isolierenden Fettschicht schnell zu heiß werden."
      },
      {
        "id": 2,
        "question": "In welchem Körperteil können Seepferdchen schwimmen ?",
        "propositions": [
          "Rückenflosse",
          "Kopf",
          "Schwanz",
          "Ventralflosse"
        ],
        "réponse": "Rückenflosse",
        "anecdote": "Obwohl sie Fische sind, schwimmen Seepferdchen sehr langsam mit welligen Bewegungen."
      },
      {
        "id": 3,
        "question": "Warum können wir nicht die Schreie der Fledermaus hören ?",
        "propositions": [
          "Zu akut",
          "Zu stark",
          "Zu ernst",
          "Zu schwach"
        ],
        "réponse": "Zu akut",
        "anecdote": "Die Fledermäuse senden und empfangen Ultraschall, den unser Ohr nicht wahrnehmen kann (max. 20.000 Hertz)."
      },
      {
        "id": 4,
        "question": "Wie hieß die riesige Tridacne-Muschel in vielen Kirchen ?",
        "propositions": [
          "Kronleuchter",
          "Betonier",
          "Kofferraum",
          "Brotkorb"
        ],
        "réponse": "Betonier",
        "anecdote": "Vor 300 Jahren galten Muscheln als kostbare Gegenstände und dienten den Kircheneingängen als Gewinn."
      },
      {
        "id": 5,
        "question": "Welche schwere und schmerzhafte Aufgabe liegt bei der Ameisenkönigin ?",
        "propositions": [
          "Töte die Männchen",
          "Eier legen",
          "Verteidige das Nest",
          "Ich suche essen"
        ],
        "réponse": "Eier legen",
        "anecdote": "Die Königin ist die einzige Ameise im Nest, die Eier brütet, aus denen tatsächlich Larven geschlüpft sind, aus denen die zukünftigen Ameisen geboren werden."
      },
      {
        "id": 6,
        "question": "Was essen Marienkäfer besonders gerne ?",
        "propositions": [
          "Blattläuse",
          "Kristalle",
          "Elécces",
          "Blütenblätter"
        ],
        "réponse": "Blattläuse",
        "anecdote": "Als nützliche Tiere werden Marienkäfer gezüchtet, die dann zur ökologischen Bekämpfung von Schädlingen eingesetzt werden."
      },
      {
        "id": 7,
        "question": "Warum bekämpfen sich die Nekrophoren ?",
        "propositions": [
          "Frauen",
          "Leichen",
          "Gebiet",
          "Gold"
        ],
        "réponse": "Leichen",
        "anecdote": "Ein paar Nekrophoren begraben ein totes Tier in der Erde und legen dort Eier, deren Larven gefüttert werden."
      },
      {
        "id": 8,
        "question": "In welcher Umgebung muss eine Milbe leben ?",
        "propositions": [
          "Nass",
          "Sec",
          "Fett",
          "Sunny"
        ],
        "réponse": "Nass",
        "anecdote": "Ohne die Milben, die in unseren Matratzen nisten, vor allem an feuchten Orten, würden die Wälder mit toten Blättern bedeckt sein."
      },
      {
        "id": 9,
        "question": "Mit welchem Körperteil der Schnecke können die Pflanzen geschnitten werden ?",
        "propositions": [
          "Bras",
          "Palast",
          "Zähne",
          "Sprache"
        ],
        "réponse": "Sprache",
        "anecdote": "Wie eine Feile zieht die träge Zunge der Schnecke die zarten Pflanzen in kleine Stücke und streift so die jungen Salate ab."
      },
      {
        "id": 10,
        "question": "Was zeigt der schwächste Wolf nach einem Kampf um die Hierarchie ?",
        "propositions": [
          "Seine Sprache",
          "Sein schwanz",
          "Seine Zähne",
          "Ihr Bauch"
        ],
        "réponse": "Ihr Bauch",
        "anecdote": "Der niedere Wolf wird also nicht verletzt, muss sich aber nach seiner ausgeprägten Hierarchie dem dominanten Partner unterwerfen."
      }
    ],
    "confirmé": [
      {
        "id": 11,
        "question": "Was ist die häufigste Todesursache bei Elefanten in Freiheit ?",
        "propositions": [
          "Gebrochene Trompete",
          "Krankheit",
          "Verschleiß der Zähne",
          "Biss von Schlangen"
        ],
        "réponse": "Verschleiß der Zähne",
        "anecdote": "Wenn der letzte Molar durch Kauen verschlissen ist, kann der Elefant nicht mehr genug füttern und stirbt traurig an Hunger."
      },
      {
        "id": 12,
        "question": "Mit welchem Teil ihres Körpers bewegt sich der Maulwurf unter der Erde ?",
        "propositions": [
          "Vibrisses",
          "Ohren",
          "Schnauze",
          "Augen"
        ],
        "réponse": "Vibrisses",
        "anecdote": "Die Maulwürfe orientieren sich fast ausschließlich an einer Art Schnurrbart und töten so ihre Nahrung."
      },
      {
        "id": 13,
        "question": "Mit welchem anderen Tier ist der Tapir außer mit dem Pferd verwandt ?",
        "propositions": [
          "Schwein",
          "Elefant",
          "Nashorn",
          "Hamster"
        ],
        "réponse": "Nashorn",
        "anecdote": "Die Tapire der Familie der Huftiere benutzen ihren Kofferraum wie eine Hand und können ihn daher zurückziehen, wenn dieser sie stört."
      },
      {
        "id": 14,
        "question": "Wie schützen sich Tausendfüßler vor ihren Feinden ?",
        "propositions": [
          "Schreien",
          "Durch Tarnung",
          "Durch ihre Sekretionen",
          "Durch Beißen"
        ],
        "réponse": "Durch ihre Sekretionen",
        "anecdote": "Bei Gefahr geben die Tausendfüßler eine ätzende rote Substanz aus, die über Drüsen an ihren Ringen zu den übelriechenden Gerüchen führt."
      },
      {
        "id": 15,
        "question": "Welche Tiere stehlen oft die Beute, die sie gejagt haben, von Hyänen ?",
        "propositions": [
          "Wachen",
          "Löwen",
          "Buffalo",
          "Gnus"
        ],
        "réponse": "Löwen",
        "anecdote": "Hyänen jagen in der Regel in Rudeln von etwa vierzig Tieren wie Zebras oder Gnus."
      },
      {
        "id": 16,
        "question": "Wie viel ist über die kleinste Spitzmausart bekannt ?",
        "propositions": [
          "20 g",
          "130 g",
          "2 Gramm",
          "70 g"
        ],
        "réponse": "2 Gramm",
        "anecdote": "Unser einheimischer Zwergspitzmaus ist etwa doppelt so groß und schwerer als diese eigentümliche Garnele."
      },
      {
        "id": 17,
        "question": "Wie markiert der Luchs normalerweise sein Territorium ?",
        "propositions": [
          "Tote Mäuse",
          "Haar",
          "Erektionen",
          "Exkremente"
        ],
        "réponse": "Erektionen",
        "anecdote": "Zusätzlich zum Abreiben verwenden Luchse manchmal auch ihren Urin als Duftmarke, um ihren Bereich zu definieren."
      },
      {
        "id": 18,
        "question": "Schnitt fürs Rennen, wie schnell kann eine Hürde laufen ?",
        "propositions": [
          "90 km / h",
          "120 km / h",
          "60 km / h",
          "150 km / h"
        ],
        "réponse": "120 km / h",
        "anecdote": "Das schnellste Tier kann diese Geschwindigkeit nur einige hundert Meter beibehalten, was den Gazellen eine Chance gibt."
      },
      {
        "id": 19,
        "question": "Wie schützen sich die Insekten vor Angriffen ?",
        "propositions": [
          "Durch wegfliegen",
          "Im Flug",
          "Durch das Einwickeln von",
          "Indem er sich begraben hat"
        ],
        "réponse": "Durch das Einwickeln von",
        "anecdote": "Der Körper eines Holzlaus, in diesem Fall unbeweglich, besteht aus mehreren massiven Ringen, die an die Rüstung eines Ritters erinnern."
      },
      {
        "id": 20,
        "question": "Welches Tier ist der größte bekannte Feind der variablen Düse ?",
        "propositions": [
          "Braunbär",
          "Mann",
          "Renard",
          "Aigle"
        ],
        "réponse": "Mann",
        "anecdote": "Viele Bussarde werden von Menschen zerquetscht, während sie versuchen, tote Tiere von Autobahnen zu bergen."
      }
    ],
    "expert": [
      {
        "id": 21,
        "question": "Nach wie lange bekommt ein Baby zum ersten Mal Fleisch ?",
        "propositions": [
          "Ein Jahr",
          "Ein Monat",
          "Sechs Jahre",
          "Sechs Monate"
        ],
        "réponse": "Sechs Monate",
        "anecdote": "In den ersten sechs Monaten werden Baby-Tiger, die ihren Vater nicht kennen, von ihrer Mutter gestillt."
      },
      {
        "id": 22,
        "question": "Wie viele Liter Milch produziert eine Hochleistungskuh täglich ?",
        "propositions": [
          "25",
          "35",
          "5",
          "15"
        ],
        "réponse": "35",
        "anecdote": "Diese stark ausgebeuteten Kühe leiden meistens an einer Euterentzündung und benötigen viele Medikamente."
      },
      {
        "id": 23,
        "question": "Auf welche lebenswichtige Funktion kann der Fennec erstaunlich verzichten ?",
        "propositions": [
          "Trinken",
          "Schlafen",
          "Siehe",
          "Zu essen"
        ],
        "réponse": "Trinken",
        "anecdote": "Die Flüssigkeit, die der Fennek dank seiner Nahrung aufnimmt, reicht ihm aus und ist daher wunderbar an das Leben in der Wüste angepasst."
      },
      {
        "id": 24,
        "question": "Was ist der größte der Aras unter den bisher bekannten Papageien ?",
        "propositions": [
          "Chloroptera",
          "Ararauna",
          "Macao",
          "Hyacinthe"
        ],
        "réponse": "Hyacinthe",
        "anecdote": "Dieser Papagei von etwa 150 cm, einschließlich Schwanz, hat ein einfaches blaues Gefieder und lebt hauptsächlich in Bolivien und Brasilien."
      },
      {
        "id": 25,
        "question": "Wie viele Stunden am Tag ist ein Riesenpanda damit beschäftigt, zu essen ?",
        "propositions": [
          "Zwölf",
          "Acht",
          "Sechzehn",
          "Vier"
        ],
        "réponse": "Sechzehn",
        "anecdote": "Der große Panda frisst nur junge Bambussprossen, aber diese sind nicht sehr nahrhaft."
      },
      {
        "id": 26,
        "question": "Wie lange wird ein Baby von seiner Mutter gestillt ?",
        "propositions": [
          "6 Monate",
          "18 Monate",
          "1 Monat",
          "1 Jahr"
        ],
        "réponse": "18 Monate",
        "anecdote": "Nach 12 Monaten der Schwangerschaft wiegt das Walrossbaby mehr als 50 kg und kann bereits nach zwei Wochen schwimmen."
      },
      {
        "id": 27,
        "question": "Warum töten Marder manchmal Hühner ?",
        "propositions": [
          "Pfoten",
          "Leber",
          "Oberschenkel",
          "Blut"
        ],
        "réponse": "Blut",
        "anecdote": "Marder trinken nur Blut und lassen den Rest übrig. Sie essen lieber Kaninchen, Eier, Eidechsen oder Insekten."
      },
      {
        "id": 28,
        "question": "Woraus besteht die Glocke der Klapperschlange ?",
        "propositions": [
          "Steine",
          "Horn",
          "Kalkstein",
          "Holz"
        ],
        "réponse": "Horn",
        "anecdote": "Die sechs bis zehn Hornringe am Ende des Schwanzes der Klapperschlange stammen von den vorherigen Moults."
      },
      {
        "id": 29,
        "question": "In welcher Jahreszeit können wir die Eule schreien hören ?",
        "propositions": [
          "Frühling",
          "Winter",
          "Sommer",
          "Herbst"
        ],
        "réponse": "Frühling",
        "anecdote": "Die Eule schreit im April und Mai, um die Aufmerksamkeit einer Frau auf sich zu ziehen, die dann zeitlebens treu bleiben wird."
      },
      {
        "id": 30,
        "question": "Wie viele Federn besteht aus dem Fell des männlichen Igels ?",
        "propositions": [
          "8.000",
          "12.000",
          "4.000",
          "16.000"
        ],
        "réponse": "16.000",
        "anecdote": "Im Gefahrenfall kann der Igel seine vielen Federn aufstellen und sich zusammenrollen, um die Feinde zu schützen."
      }
    ]
    },
    "es": {
      "débutant": [
      {
        "id": 1,
        "question": "¿Por qué los osos polares yacen en la nieve cuando corren ?",
        "propositions": [
          "Durmiendo",
          "Para actualizar",
          "Para comer",
          "Para descansar"
        ],
        "réponse": "Para actualizar",
        "anecdote": "Los osos polares pueden calentarse rápidamente bajo su pelaje muy grueso y su capa de grasa aislante."
      },
      {
        "id": 2,
        "question": "¿Qué parte del cuerpo permite que los caballitos de mar naden ?",
        "propositions": [
          "Cola",
          "Aleta ventral",
          "Cabeza",
          "Aleta dorsal"
        ],
        "réponse": "Aleta dorsal",
        "anecdote": "Aunque son peces, los caballitos de mar nadan muy lentamente con movimientos ondulados."
      },
      {
        "id": 3,
        "question": "¿Por qué no podemos escuchar los gritos del murciélago ?",
        "propositions": [
          "Demasiado fuerte",
          "Demasiado débil",
          "Demasiado agudo",
          "Demasiado serio"
        ],
        "réponse": "Demasiado agudo",
        "anecdote": "Los murciélagos emiten y reciben ultrasonidos que nuestro oído no puede percibir (máximo 20 000 hertz)."
      },
      {
        "id": 4,
        "question": "¿Cuál era el nombre del caparazón de tridacne gigante en muchas iglesias ?",
        "propositions": [
          "Araña de luces",
          "Tronco",
          "Canasta De Pan",
          "Betonier"
        ],
        "réponse": "Betonier",
        "anecdote": "Hace 300 años, las conchas se consideraban objetos preciosos y servían como un beneficio en las entradas a las iglesias."
      },
      {
        "id": 5,
        "question": "¿Qué tarea pesada y dolorosa recae en la reina de las hormigas ?",
        "propositions": [
          "Defender el nido",
          "Buscando comer",
          "Poner huevos",
          "Mata a los machos"
        ],
        "réponse": "Poner huevos",
        "anecdote": "La reina es la única hormiga en el nido para incubar huevos, que en realidad son larvas de las cuales nacerán las futuras hormigas."
      },
      {
        "id": 6,
        "question": "¿Qué les gusta comer especialmente a las mariquitas ?",
        "propositions": [
          "Elécces",
          "Pétalos",
          "Cristales",
          "Áfidos"
        ],
        "réponse": "Áfidos",
        "anecdote": "Considerados animales útiles, las mariquitas se crían y luego se usan para combatir las plagas ecológicamente."
      },
      {
        "id": 7,
        "question": "¿Por qué los necróforos luchan entre sí ?",
        "propositions": [
          "Territorio",
          "Oro",
          "Cadáveres",
          "Hembras"
        ],
        "réponse": "Cadáveres",
        "anecdote": "Un par de necróforos entierran a un animal muerto en el suelo y ponen huevos cuyas larvas son alimentadas."
      },
      {
        "id": 8,
        "question": "¿Qué tipo de ambiente necesita un ácaro para vivir ?",
        "propositions": [
          "Mojado",
          "Gordo",
          "Sec",
          "Soleado"
        ],
        "réponse": "Mojado",
        "anecdote": "Sin los ácaros, que anidan en nuestros colchones, pero especialmente en lugares húmedos, los bosques se sumergirían con hojas muertas."
      },
      {
        "id": 9,
        "question": "¿Qué parte del cuerpo de la babosa permite cortar las plantas ?",
        "propositions": [
          "Dientes",
          "Palacio",
          "Bras",
          "Idioma"
        ],
        "réponse": "Idioma",
        "anecdote": "Como una lima, la lengua lenta de la babosa hace que las plantas tiernas se conviertan en trozos pequeños y de esta manera se quitan las ensaladas jóvenes."
      },
      {
        "id": 10,
        "question": "¿Qué muestra el lobo más débil después de una lucha por la jerarquía ?",
        "propositions": [
          "Su idioma",
          "Sus dientes",
          "Su vientre",
          "Su polla"
        ],
        "réponse": "Su vientre",
        "anecdote": "Por lo tanto, el lobo inferior no está lesionado, pero en el futuro tendrá que someterse a la pareja dominante, de acuerdo con su jerarquía pronunciada."
      }
    ],
    "confirmé": [
      {
        "id": 11,
        "question": "¿Cuál es la causa más común de muerte entre los elefantes en libertad ?",
        "propositions": [
          "Desgaste de los dientes",
          "Trompeta rota",
          "Mordedura de serpientes",
          "Enfermedad"
        ],
        "réponse": "Desgaste de los dientes",
        "anecdote": "Cuando el último molar se agota al masticar, el elefante ya no puede alimentarse lo suficiente y muere tristemente de hambre."
      },
      {
        "id": 12,
        "question": "¿Con qué parte de su cuerpo se mueve el lunar debajo del suelo ?",
        "propositions": [
          "Ojos",
          "Vibris",
          "Bozal",
          "Orejas"
        ],
        "réponse": "Vibris",
        "anecdote": "Los lunares se orientan casi exclusivamente usando una especie de bigote y matan su comida de esta manera."
      },
      {
        "id": 13,
        "question": "Aparte del caballo, ¿con qué otro animal está relacionado el tapir ?",
        "propositions": [
          "Rinoceronte",
          "Cerdo",
          "Elefante",
          "Hámster"
        ],
        "réponse": "Rinoceronte",
        "anecdote": "Los tapires, de la familia de los ungulados, usan su tronco como una mano y, por lo tanto, pueden retraerlo cuando éste los perturba."
      },
      {
        "id": 14,
        "question": "¿Cómo se protegen los milpiés de sus depredadores ?",
        "propositions": [
          "Por sus secreciones",
          "Gritando",
          "Mordiendo",
          "Por camuflaje"
        ],
        "réponse": "Por sus secreciones",
        "anecdote": "En caso de peligro, los ciempiés emiten una sustancia cáustica roja al olor nauseabundo que abunda a través de las glándulas en sus anillos."
      },
      {
        "id": 15,
        "question": "¿Qué animales a menudo roban de las hienas la presa que han cazado ?",
        "propositions": [
          "Ñu",
          "Búfalo",
          "Leones",
          "Guardias"
        ],
        "réponse": "Leones",
        "anecdote": "Las hienas generalmente cazan en paquetes de aproximadamente cuarenta individuos de animales como cebras o ñus."
      },
      {
        "id": 16,
        "question": "¿Cuánto se trata de la especie más pequeña de musaraña conocida ?",
        "propositions": [
          "2 gramos",
          "70 gramos",
          "20 gramos",
          "130 gramos"
        ],
        "réponse": "2 gramos",
        "anecdote": "Nuestra musaraña pigmea local es aproximadamente dos veces más grande y más pesada que este camarón peculiar."
      },
      {
        "id": 17,
        "question": "¿Cómo suele marcar el lince su territorio ?",
        "propositions": [
          "Erecciones",
          "Excremento",
          "Ratones muertos",
          "Pelo"
        ],
        "réponse": "Erecciones",
        "anecdote": "Además de desgastar, los linces a veces también usan su orina como una marca de olor para definir su área."
      },
      {
        "id": 18,
        "question": "Corte para la carrera, ¿qué tan rápido puede correr un obstáculo ?",
        "propositions": [
          "60 km / h",
          "120 km / h",
          "150 km / h",
          "90 km / h"
        ],
        "réponse": "120 km / h",
        "anecdote": "El animal más rápido solo puede mantener esta velocidad unos cientos de metros, lo que le da una oportunidad a las gacelas."
      },
      {
        "id": 19,
        "question": "¿Cómo se protegen los sowbugs de los ataques ?",
        "propositions": [
          "Al terminar",
          "En vuelo",
          "Enterrándose a sí mismo",
          "Volando lejos"
        ],
        "réponse": "Al terminar",
        "anecdote": "El cuerpo de un woodlouse, en este caso inmóvil, se compone de varios anillos sólidos que recuerdan la armadura de un caballero."
      },
      {
        "id": 20,
        "question": "¿Qué animal es el mayor enemigo conocido de la boquilla variable ?",
        "propositions": [
          "Hombre",
          "Aigle",
          "Renard",
          "Oso pardo"
        ],
        "réponse": "Hombre",
        "anecdote": "Muchos buitres son aplastados por los humanos cuando intentan recuperar animales muertos de las carreteras."
      }
    ],
    "expert": [
      {
        "id": 21,
        "question": "¿Después de cuánto tiempo obtiene carne un bebé por primera vez ?",
        "propositions": [
          "Un mes",
          "Un año",
          "Seis años",
          "Seis meses"
        ],
        "réponse": "Seis meses",
        "anecdote": "En los primeros seis meses, los tigres bebés que no conocen a su padre son amamantados por su madre."
      },
      {
        "id": 22,
        "question": "¿Cuántos litros de leche produce una vaca de alto rendimiento cada día ?",
        "propositions": [
          "25",
          "15",
          "35",
          "5"
        ],
        "réponse": "35",
        "anecdote": "Estas vacas muy explotadas suelen sufrir de inflamación de las ubres y requieren muchos medicamentos."
      },
      {
        "id": 23,
        "question": "¿Con qué función vital pueden hacer asombrosamente los Fennec ?",
        "propositions": [
          "Durmiendo",
          "Para comer",
          "Ver",
          "Bebida"
        ],
        "réponse": "Bebida",
        "anecdote": "El líquido que el fennec absorbe gracias a su dieta es suficiente para él y, por lo tanto, se adapta admirablemente a la vida en el desierto."
      },
      {
        "id": 24,
        "question": "¿Cuál es la más grande de las guacamayas entre los loros conocidos hasta la fecha ?",
        "propositions": [
          "Ararauna",
          "Hyacinthe",
          "Macao",
          "Cloropteros"
        ],
        "réponse": "Hyacinthe",
        "anecdote": "Este loro de unos 150 cm, con la cola incluida, tiene un plumaje azul claro y vive principalmente en Bolivia y Brasil."
      },
      {
        "id": 25,
        "question": "En general, ¿cuántas horas al día come un panda gigante ocupado ?",
        "propositions": [
          "Doce",
          "Cuatro",
          "Dieciséis",
          "Ocho"
        ],
        "réponse": "Dieciséis",
        "anecdote": "El panda gigante solo come brotes de bambú jóvenes, pero estos no son muy nutritivos."
      },
      {
        "id": 26,
        "question": "¿Por cuánto tiempo es amamantado un bebé por su madre ?",
        "propositions": [
          "18 meses",
          "1 mes",
          "1 año",
          "6 meses"
        ],
        "réponse": "18 meses",
        "anecdote": "Después de un período de 12 meses de gestación, la morsa bebé pesa más de 50 kg y ya puede nadar después de solo dos semanas."
      },
      {
        "id": 27,
        "question": "¿Por qué martens a veces matan pollos ?",
        "propositions": [
          "Sangre",
          "Muslos",
          "Patas",
          "Hígado"
        ],
        "réponse": "Sangre",
        "anecdote": "Martens solo bebe sangre y deja el resto, prefiriendo comer conejos, huevos, lagartijas o insectos."
      },
      {
        "id": 28,
        "question": "¿De qué está hecha la campana de la serpiente de cascabel ?",
        "propositions": [
          "Madera",
          "Cuerno",
          "Piedras",
          "Piedra caliza"
        ],
        "réponse": "Cuerno",
        "anecdote": "Los seis a diez anillos de cuerno ubicados al final de la cola de la serpiente de cascabel provienen de las mudas anteriores."
      },
      {
        "id": 29,
        "question": "¿En qué estación del año podemos escuchar el grito del búho ?",
        "propositions": [
          "Primavera",
          "Verano",
          "Otoño",
          "Invierno"
        ],
        "réponse": "Primavera",
        "anecdote": "El búho grita en abril y mayo para atraer la atención de una mujer que permanecerá leal a su lado durante toda su vida."
      },
      {
        "id": 30,
        "question": "¿Cuántas plumas está compuesta de la piel del erizo masculino ?",
        "propositions": [
          "16,000",
          "12,000",
          "4,000",
          "8,000"
        ],
        "réponse": "16,000",
        "anecdote": "En caso de peligro, el erizo puede colocar sus muchas púas y acurrucarse sobre sí mismo para proteger a los enemigos."
      }
    ]
    },
    "it": {
      "débutant": [
      {
        "id": 1,
        "question": "Perché gli orsi polari giacciono nella neve quando corrono ?",
        "propositions": [
          "Mangiare",
          "Riposare",
          "Dormire",
          "Per aggiornare"
        ],
        "réponse": "Per aggiornare",
        "anecdote": "Gli orsi polari possono diventare troppo caldi sotto la loro pelliccia molto spessa e il loro strato di grasso isolante."
      },
      {
        "id": 2,
        "question": "Quale parte del corpo permette ai cavallucci marini di nuotare ?",
        "propositions": [
          "Pinne ventrali",
          "Pinna dorsale",
          "Coda",
          "Testa"
        ],
        "réponse": "Pinna dorsale",
        "anecdote": "Sebbene siano pesci, i cavallucci marini nuotano molto lentamente con movimenti ondulati."
      },
      {
        "id": 3,
        "question": "Perché non possiamo sentire le grida del pipistrello ?",
        "propositions": [
          "Troppo debole",
          "Troppo acuto",
          "Troppo serio",
          "Troppo forte"
        ],
        "réponse": "Troppo acuto",
        "anecdote": "I pipistrelli emettono e ricevono gli ultrasuoni che il nostro orecchio non riesce a percepire (max 20.000 hertz)."
      },
      {
        "id": 4,
        "question": "Qual era il nome della gigantesca conchiglia tridacne in molte chiese ?",
        "propositions": [
          "Betonier",
          "Cestino del pane",
          "Trunk",
          "Lampadario"
        ],
        "réponse": "Betonier",
        "anecdote": "300 anni fa, le conchiglie erano considerate oggetti preziosi e servivano come vantaggio agli ingressi delle chiese."
      },
      {
        "id": 5,
        "question": "Quale compito pesante e doloroso ricade sulla regina delle formiche ?",
        "propositions": [
          "Lay uova",
          "Uccidi i maschi",
          "Difendere il nido",
          "Cerco di mangiare"
        ],
        "réponse": "Lay uova",
        "anecdote": "La regina è l'unica formica nel nido a covare uova, che sono in realtà larve tratteggiate da cui nasceranno le future formiche."
      },
      {
        "id": 6,
        "question": "Che cosa amano particolarmente le coccinelle ?",
        "propositions": [
          "Cristalli",
          "Petali",
          "Afidi",
          "Elécces"
        ],
        "réponse": "Afidi",
        "anecdote": "Considerati animali utili, le coccinelle vengono allevate e quindi utilizzate per combattere ecologicamente i parassiti."
      },
      {
        "id": 7,
        "question": "Perché i necrophores si combattono ?",
        "propositions": [
          "Femmine",
          "Cadaveri",
          "Territorio",
          "Oro"
        ],
        "réponse": "Cadaveri",
        "anecdote": "Un paio di necrophores seppelliscono un animale morto nel terreno e depongono uova le cui larve vengono nutrite."
      },
      {
        "id": 8,
        "question": "Che tipo di ambiente ha bisogno di un acaro per vivere ?",
        "propositions": [
          "Soleggiato",
          "Grasso",
          "Bagnato",
          "Sec"
        ],
        "réponse": "Bagnato",
        "anecdote": "Senza gli acari, che nidificano nei nostri materassi ma soprattutto in luoghi umidi, le foreste sarebbero sommerse da foglie morte."
      },
      {
        "id": 9,
        "question": "Quale parte del corpo della lumaca consente di tagliare le piante ?",
        "propositions": [
          "Denti",
          "Reggiseni",
          "Lingua",
          "Palazzo"
        ],
        "réponse": "Lingua",
        "anecdote": "Come una lima, la lingua pigra della lumaca coltiva le piante teneri in piccoli pezzi e quindi spoglia le giovani insalate."
      },
      {
        "id": 10,
        "question": "Cosa mostra il lupo più debole dopo una lotta per la gerarchia ?",
        "propositions": [
          "La sua pancia",
          "Il suo cazzo",
          "I suoi denti",
          "La sua lingua"
        ],
        "réponse": "La sua pancia",
        "anecdote": "Il lupo inferiore non è quindi ferito, ma dovrà in futuro presentarsi al compagno dominante, secondo la loro pronunciata gerarchia."
      }
    ],
    "confirmé": [
      {
        "id": 11,
        "question": "Qual è la causa più comune di morte tra gli elefanti in libertà ?",
        "propositions": [
          "Malattia",
          "Tromba rotta",
          "Usura dei denti",
          "Morso di serpenti"
        ],
        "réponse": "Usura dei denti",
        "anecdote": "Quando l'ultimo molare è consumato masticando, l'elefante non può più nutrirsi abbastanza e muore tristemente per la fame."
      },
      {
        "id": 12,
        "question": "Con quale parte del suo corpo la talpa si muove sotto terra ?",
        "propositions": [
          "Vibrisses",
          "Muso",
          "Occhi",
          "Orecchie"
        ],
        "réponse": "Vibrisses",
        "anecdote": "Le talpe si orientano quasi esclusivamente usando una sorta di baffi e uccidono il loro cibo in questo modo."
      },
      {
        "id": 13,
        "question": "A parte il cavallo, a quale altro animale è collegato il tapiro ?",
        "propositions": [
          "Rinoceronte",
          "Maiale",
          "Elefante",
          "Criceto"
        ],
        "réponse": "Rinoceronte",
        "anecdote": "I tapiri, della famiglia degli ungulati, usano il loro tronco come una mano e possono quindi ritrarlo quando questo li disturba."
      },
      {
        "id": 14,
        "question": "In che modo i millepiedi proteggono se stessi dai loro predatori ?",
        "propositions": [
          "Per mimetizzazione",
          "Con le loro secretazioni",
          "Gridare",
          "Mordendo"
        ],
        "réponse": "Con le loro secretazioni",
        "anecdote": "In caso di pericolo, i millepiedi emettono una sostanza rossa caustica per l'odore nauseabondo abbonda di ghiandole sui loro anelli."
      },
      {
        "id": 15,
        "question": "Quali animali rubano spesso alle iene la preda che hanno cacciato ?",
        "propositions": [
          "Lions",
          "Buffalo",
          "Gnu",
          "Guardie"
        ],
        "réponse": "Lions",
        "anecdote": "Le iene di solito cacciano in branchi di una quarantina di animali come zebre o gnu."
      },
      {
        "id": 16,
        "question": "Quanto parla della più piccola specie di toporagno conosciuta ?",
        "propositions": [
          "2 grammi",
          "70 grammi",
          "130 grammi",
          "20 grammi"
        ],
        "réponse": "2 grammi",
        "anecdote": "Il nostro toporagno pigmeo locale è circa due volte più grande e più pesante di questo gambero particolare."
      },
      {
        "id": 17,
        "question": "In che modo la lince di solito segna il suo territorio ?",
        "propositions": [
          "Capelli",
          "Escrementi",
          "Topi morti",
          "Erezioni"
        ],
        "réponse": "Erezioni",
        "anecdote": "Oltre a raschiare, le linci a volte usano anche le loro urine come segni di odore per definire la loro area."
      },
      {
        "id": 18,
        "question": "Tagliare per la gara, quanto velocemente può correre un ostacolo ?",
        "propositions": [
          "120 km / h",
          "60 km / h",
          "150 km / h",
          "90 km / h"
        ],
        "réponse": "120 km / h",
        "anecdote": "L'animale più veloce può mantenere questa velocità solo per poche centinaia di metri, dando una possibilità alle gazzelle."
      },
      {
        "id": 19,
        "question": "In che modo i sowbug si proteggono dagli attacchi ?",
        "propositions": [
          "In volo",
          "Volando via",
          "Concludendo",
          "Seppellendosi"
        ],
        "réponse": "Concludendo",
        "anecdote": "Il corpo di un woodlouse, in questo caso immobile, è composto da diversi anelli solidi che ricordano l'armatura di un cavaliere."
      },
      {
        "id": 20,
        "question": "Quale animale è il più grande nemico conosciuto della bocchetta variabile ?",
        "propositions": [
          "Man",
          "Orso bruno",
          "Renard",
          "Aigle"
        ],
        "réponse": "Man",
        "anecdote": "Molte poiane sono schiacciate dagli umani mentre tentano di recuperare animali morti dalle autostrade."
      }
    ],
    "expert": [
      {
        "id": 21,
        "question": "Dopo quanto tempo un bambino prende la carne per la prima volta ?",
        "propositions": [
          "Sei anni",
          "Sei mesi",
          "Un mese",
          "Un anno"
        ],
        "réponse": "Sei mesi",
        "anecdote": "Nei primi sei mesi, le tigri che non conoscono il padre sono allattate dalla madre."
      },
      {
        "id": 22,
        "question": "Quanti litri di latte produce una mucca ad alte prestazioni ogni giorno ?",
        "propositions": [
          "15",
          "5",
          "35",
          "25"
        ],
        "réponse": "35",
        "anecdote": "Queste mucche fortemente sfruttate soffrono molto spesso di infiammazione delle mammelle e richiedono molti farmaci."
      },
      {
        "id": 23,
        "question": "Di quale funzione vitale può davvero rinunciare il fennec ?",
        "propositions": [
          "Mangiare",
          "Dormire",
          "Vedi",
          "Bere"
        ],
        "réponse": "Bere",
        "anecdote": "Il liquido che il fennec assorbe grazie alla sua dieta è sufficiente per lui ed è quindi mirabilmente adattato alla vita nel deserto."
      },
      {
        "id": 24,
        "question": "Qual è la più grande tra are pappagalli noti fino ad oggi ?",
        "propositions": [
          "Macau",
          "Chloroptera",
          "Hyacinthe",
          "ararauna"
        ],
        "réponse": "Hyacinthe",
        "anecdote": "Questo pappagallo di circa 150 cm, coda inclusa, ha un semplice piumaggio blu pallido e vive principalmente in Bolivia e in Brasile."
      },
      {
        "id": 25,
        "question": "In generale, quante ore al giorno è un panda gigante impegnato a mangiare ?",
        "propositions": [
          "Dodici",
          "Sedici",
          "Otto",
          "Quattro"
        ],
        "réponse": "Sedici",
        "anecdote": "Il panda gigante mangia solo giovani germogli di bambù, ma questi non sono molto nutrienti."
      },
      {
        "id": 26,
        "question": "Quanto dura un bambino allattato da sua madre ?",
        "propositions": [
          "6 mesi",
          "1 anno",
          "18 mesi",
          "1 mese"
        ],
        "réponse": "18 mesi",
        "anecdote": "Dopo un periodo di 12 mesi di gestazione, il tricheco pesa più di 50 kg e può già nuotare dopo solo due settimane."
      },
      {
        "id": 27,
        "question": "Perché a volte le martore uccidono i polli ?",
        "propositions": [
          "Fegato",
          "Sangue",
          "Cosce",
          "Zampe"
        ],
        "réponse": "Sangue",
        "anecdote": "Le martore bevono solo sangue e lasciano il resto, preferendo mangiare conigli, uova, lattuga o insetti."
      },
      {
        "id": 28,
        "question": "Di cosa è fatta la campana del serpente a sonagli ?",
        "propositions": [
          "Corno",
          "Legno",
          "Calcare",
          "Pietre"
        ],
        "réponse": "Corno",
        "anecdote": "I sei - dieci anelli di corno situati alla fine della coda del serpente a sonagli provengono dalle mute precedenti."
      },
      {
        "id": 29,
        "question": "Durante quale stagione dell'anno possiamo sentire il gufo urlare ?",
        "propositions": [
          "Primavera",
          "Autunno",
          "Estate",
          "Inverno"
        ],
        "réponse": "Primavera",
        "anecdote": "Il gufo urla in aprile e maggio per attirare l'attenzione di una donna che rimarrà fedele al suo fianco per tutta la vita."
      },
      {
        "id": 30,
        "question": "Quante piume sono composte dalla pelliccia del riccio maschio ?",
        "propositions": [
          "12.000",
          "8.000",
          "16.000",
          "4.000"
        ],
        "réponse": "16.000",
        "anecdote": "In caso di pericolo, il riccio può impostare le sue numerose penne e rannicchiarsi su se stesso per proteggere i nemici."
      }
    ]
    },
    "nl": {
      "débutant": [
      {
        "id": 1,
        "question": "Waarom liggen ijsberen in de sneeuw als ze rennen ?",
        "propositions": [
          "Vernieuwen",
          "Rusten",
          "Slapen",
          "Eten"
        ],
        "réponse": "Vernieuwen",
        "anecdote": "IJsberen kunnen snel te heet worden onder hun zeer dikke vacht en hun isolerende vetlaag."
      },
      {
        "id": 2,
        "question": "In welk deel van het lichaam kunnen zeepaardjes zwemmen ?",
        "propositions": [
          "Ventrale vin",
          "Hoofd",
          "Rugvin",
          "Staart"
        ],
        "réponse": "Rugvin",
        "anecdote": "Hoewel ze vis zijn, zwemmen zeepaardjes heel langzaam met golvende bewegingen."
      },
      {
        "id": 3,
        "question": "Waarom kunnen we het geroep van de knuppel niet horen ?",
        "propositions": [
          "Te zwak",
          "Te sterk",
          "Te acuut",
          "Te serieus"
        ],
        "réponse": "Te acuut",
        "anecdote": "De vleermuizen zenden en ontvangen echo's die ons oor niet kan waarnemen (max. 20.000 hertz)."
      },
      {
        "id": 4,
        "question": "Hoe heette de gigantische tridacne-schaal in veel kerken ?",
        "propositions": [
          "Kroonluchter",
          "Betonier",
          "Trunk",
          "Broodmand"
        ],
        "réponse": "Betonier",
        "anecdote": "300 jaar geleden werden schelpen beschouwd als waardevolle voorwerpen en dienden ze als een voordeel bij de toegang tot kerken."
      },
      {
        "id": 5,
        "question": "Welke zware en pijnlijke taak ligt bij de koningin der mieren ?",
        "propositions": [
          "Op zoek naar eten",
          "Eieren leggen",
          "Verdedig het nest",
          "Dood de mannetjes"
        ],
        "réponse": "Eieren leggen",
        "anecdote": "De koningin is de enige mier in het nest die eieren uitbroedt, wat eigenlijk uitgebroede larven zijn waaruit de toekomstige mieren geboren zullen worden."
      },
      {
        "id": 6,
        "question": "Wat houden lieveheersbeestjes vooral van eten ?",
        "propositions": [
          "Elécces",
          "Bladluizen",
          "Kristallen",
          "Bloemblaadjes"
        ],
        "réponse": "Bladluizen",
        "anecdote": "Als bruikbare dieren worden lieveheersbeestjes opgevoed en vervolgens gebruikt om ecologisch ongedierte te bestrijden."
      },
      {
        "id": 7,
        "question": "Waarom vechten de necrophores met elkaar ?",
        "propositions": [
          "Grondgebied",
          "Vrouwtjes",
          "Goud",
          "Corpses"
        ],
        "réponse": "Corpses",
        "anecdote": "Een aantal necroforen begraven een dood dier in de grond en leggen daar eieren waarvan de larven worden gevoerd."
      },
      {
        "id": 8,
        "question": "In wat voor soort omgeving moet een mijt leven ?",
        "propositions": [
          "Vet",
          "Zonnig",
          "Nat",
          "Sec"
        ],
        "réponse": "Nat",
        "anecdote": "Zonder de mijten, die nestelen in onze matrassen maar vooral op vochtige plaatsen, zouden de bossen worden ondergedompeld in dode bladeren."
      },
      {
        "id": 9,
        "question": "Uit welk deel van het lichaam van de slak kan de plant worden gesneden ?",
        "propositions": [
          "Tanden",
          "Bras",
          "Paleis",
          "Taal"
        ],
        "réponse": "Taal",
        "anecdote": "Net als een dossier, groeit de trage tong van de slak de tere planten in kleine stukjes en verwijdert zo de jonge salades."
      },
      {
        "id": 10,
        "question": "Wat laat de zwakste wolf zien na een strijd om de hiërarchie ?",
        "propositions": [
          "Zijn taal",
          "Haar buik",
          "Zijn tanden",
          "Zijn pik"
        ],
        "réponse": "Haar buik",
        "anecdote": "De lagere wolf is dus niet gewond maar zal zich in de toekomst moeten onderwerpen aan de dominante partner, volgens hun uitgesproken hiërarchie."
      }
    ],
    "confirmé": [
      {
        "id": 11,
        "question": "Wat is de meest voorkomende doodsoorzaak onder olifanten in vrijheid ?",
        "propositions": [
          "Gebroken trompet",
          "Bijten van slangen",
          "Ziekte",
          "Slijtage van tanden"
        ],
        "réponse": "Slijtage van tanden",
        "anecdote": "Als de laatste kies is versleten door te kauwen, kan de olifant niet meer genoeg eten geven en sterft hij verdrietig van de honger."
      },
      {
        "id": 12,
        "question": "Met welk deel van haar lichaam beweegt de mol zich onder de grond ?",
        "propositions": [
          "Ogen",
          "Vibrisses",
          "Muilkorf",
          "Oren"
        ],
        "réponse": "Vibrisses",
        "anecdote": "De moedervogels oriënteren zich bijna uitsluitend door een soort snor te gebruiken en doden hun voedsel op deze manier."
      },
      {
        "id": 13,
        "question": "Afgezien van het paard, met welk ander dier is de tapir verwant ?",
        "propositions": [
          "Neushoorn",
          "Varken",
          "Olifant",
          "Hamster"
        ],
        "réponse": "Neushoorn",
        "anecdote": "De tapirs, van de familie van de hoefdieren, gebruiken hun slurfachtige hand en kunnen deze dus intrekken wanneer deze hen stoort."
      },
      {
        "id": 14,
        "question": "Hoe beschermen duizendpoten zichzelf tegen hun roofdieren ?",
        "propositions": [
          "Door camouflage",
          "Schreeuwen",
          "Door bij te bijten",
          "Door hun geheimen"
        ],
        "réponse": "Door hun geheimen",
        "anecdote": "In geval van gevaar zenden de duizendpoten een bijtende rode substantie uit naar de misselijkmakende geur die via klieren op hun ringen aanwezig is."
      },
      {
        "id": 15,
        "question": "Welke dieren stelen vaak van hyena's de prooi waarop ze hebben gejaagd ?",
        "propositions": [
          "Wildebeest",
          "Buffalo",
          "Lions",
          "Bewakers"
        ],
        "réponse": "Lions",
        "anecdote": "Hyena's jagen meestal in pakken van ongeveer veertig dieren, zoals zebra's of gnoes."
      },
      {
        "id": 16,
        "question": "Hoeveel is er over de kleinste soort shrew bekend ?",
        "propositions": [
          "2 gram",
          "70 gram",
          "20 gram",
          "130 gram"
        ],
        "réponse": "2 gram",
        "anecdote": "Onze lokale pygmee feeks is ongeveer twee keer zo groot en zwaarder dan deze eigenaardige garnaal."
      },
      {
        "id": 17,
        "question": "Hoe markeert de lynx zijn territorium gewoonlijk ?",
        "propositions": [
          "Uitwerpselen",
          "Dode muizen",
          "Haar",
          "Erecties"
        ],
        "réponse": "Erecties",
        "anecdote": "Naast het schuren gebruiken lynxen soms ook hun urine als geurvlek om hun gebied te definiëren."
      },
      {
        "id": 18,
        "question": "Gesneden voor de race, hoe snel kan een hindernis lopen ?",
        "propositions": [
          "90 km / h",
          "60 km / h",
          "150 km / h",
          "120 km / h"
        ],
        "réponse": "120 km / h",
        "anecdote": "Het snelste dier kan deze snelheid maar een paar honderd meter volhouden, waardoor de gazelles een kans krijgen."
      },
      {
        "id": 19,
        "question": "Hoe beschermen sowbugs zichzelf tegen aanvallen ?",
        "propositions": [
          "Tijdens de vlucht",
          "Door weg te vliegen",
          "Door het inpakken",
          "Door zichzelf te begraven"
        ],
        "réponse": "Door het inpakken",
        "anecdote": "Het lichaam van een pissebed, in dit geval onbeweeglijk, is samengesteld uit verschillende massieve ringen die herinneren aan het pantser van een ridder."
      },
      {
        "id": 20,
        "question": "Welk dier is de grootste bekende vijand van het variabele mondstuk ?",
        "propositions": [
          "Renard",
          "Man",
          "Aigle",
          "Bruine beer"
        ],
        "réponse": "Man",
        "anecdote": "Veel buizerden worden verpletterd door mensen als ze proberen om dode dieren te herstellen van snelwegen."
      }
    ],
    "expert": [
      {
        "id": 21,
        "question": "Na hoe lang krijgt een baby voor het eerst vlees ?",
        "propositions": [
          "Zes jaar",
          "Een maand",
          "Een jaar",
          "Zes maanden"
        ],
        "réponse": "Zes maanden",
        "anecdote": "In de eerste zes maanden krijgen babytijgers die hun vader niet kennen, borstvoeding van hun moeder."
      },
      {
        "id": 22,
        "question": "Hoeveel liter melk produceert een krachtige koeien elke dag ?",
        "propositions": [
          "35",
          "5",
          "15",
          "25"
        ],
        "réponse": "35",
        "anecdote": "Deze zwaar uitgebuite koeien lijden het vaakst aan een ontsteking van de uiers en vereisen veel medicijnen."
      },
      {
        "id": 23,
        "question": "Welke vitale functie kan de fennec verrassend missen ?",
        "propositions": [
          "drinken",
          "Eten",
          "Slapen",
          "Bekijk"
        ],
        "réponse": "drinken",
        "anecdote": "De vloeistof die de fennec absorbeert dankzij zijn voedsel is voldoende voor hem en is daarom bewonderenswaardig aangepast aan het leven in de woestijn."
      },
      {
        "id": 24,
        "question": "Wat is de grootste van de ara's onder de tot nu toe bekende papegaaien ?",
        "propositions": [
          "Macao",
          "Chloroptera",
          "Hyacinthe",
          "Ararauna"
        ],
        "réponse": "Hyacinthe",
        "anecdote": "Deze papegaai van ongeveer 150 cm, inclusief staart, heeft een effen blauw verenkleed en leeft voornamelijk in Bolivia en Brazilië."
      },
      {
        "id": 25,
        "question": "Hoeveel uur per dag is een gigantische panda in het algemeen druk met eten ?",
        "propositions": [
          "Acht",
          "Vier",
          "Twaalf",
          "Zestien"
        ],
        "réponse": "Zestien",
        "anecdote": "De gigantische panda eet alleen jonge bamboescheuten, maar deze zijn niet erg voedzaam."
      },
      {
        "id": 26,
        "question": "Hoe lang wordt een babyjongen borstvoeding gegeven door zijn moeder ?",
        "propositions": [
          "1 jaar",
          "6 maanden",
          "1 maand",
          "18 maanden"
        ],
        "réponse": "18 maanden",
        "anecdote": "Na een periode van 12 maanden zwangerschap weegt de baby-walrus meer dan 50 kg en kan hij al na slechts twee weken zwemmen."
      },
      {
        "id": 27,
        "question": "Waarom doden marters soms kippen ?",
        "propositions": [
          "Poten",
          "Dijen",
          "Lever",
          "Bloed"
        ],
        "réponse": "Bloed",
        "anecdote": "Martens drinkt alleen bloed en laat de rest achter en eet liever konijnen, eieren, sla of insecten."
      },
      {
        "id": 28,
        "question": "Waarop is de bel van de ratelslang gemaakt ?",
        "propositions": [
          "Hout",
          "Stenen",
          "Kalksteen",
          "Hoorn"
        ],
        "réponse": "Hoorn",
        "anecdote": "De zes tot tien ringen van hoorn gelegen aan het einde van de staart van de ratelslang komen uit de vorige ruien."
      },
      {
        "id": 29,
        "question": "In welk seizoen van het jaar kunnen we de uil horen gillen ?",
        "propositions": [
          "Winter",
          "Zomer",
          "Lente",
          "Herfst"
        ],
        "réponse": "Lente",
        "anecdote": "De uil schreeuwt in april en mei om de aandacht van een vrouw te trekken die dan zijn hele leven trouw aan zijn zijde zal blijven."
      },
      {
        "id": 30,
        "question": "Hoeveel pennen bestaat uit de vacht van de mannelijke egel ?",
        "propositions": [
          "12.000",
          "4.000",
          "16.000",
          "8,000"
        ],
        "réponse": "16.000",
        "anecdote": "In geval van gevaar kan de egel zijn vele stekels zetten en zichzelf opkrullen om de vijanden te beschermen."
      }
    ]
    }
  }
}