{                                     
  "fournisseur": "OpenQuizzDB - Fournisseur de contenu libre (https://www.openquizzdb.org)",
  "rédacteur": "Philippe Bresoux",
  "thème": "Snapchat (L'application aux messages éphémères)",         
  "difficulté": "3 / 5",
  "quizz": {
    "fr": {
      "débutant": [
      {
        "id": 1,
        "question": "Que représente le logo de l'application mobile Snapchat ?",
        "propositions": [
          "Fantôme",
          "Singe",
          "Ours",
          "Appareil photo"
        ],
        "réponse": "Fantôme",
        "anecdote": "Snapchat permet d'être visible par n'importe qui, pour ses amis uniquement ou pour personne (ce qu'on appelle le mode fantôme)."
      },
      {
        "id": 2,
        "question": "Quel outil de Snapchat permet depuis 2014 d'envoyer de l'argent ?",
        "propositions": [
          "Snapmoney",
          "Snapcoin",
          "Snapsend",
          "Snapcash"
        ],
        "réponse": "Snapcash",
        "anecdote": "La volonté de Snapchat étant de fidéliser ses utilisateurs, de nombreux services associés ont été proposés ces derniers temps."
      },
      {
        "id": 3,
        "question": "Quelle est la tranche d'âge de 85 % des utilisateurs de Snapchat ?",
        "propositions": [
          "13 à 34 ans",
          "60 à 78 ans",
          "47 à 59 ans",
          "35 à 46 ans"
        ],
        "réponse": "13 à 34 ans",
        "anecdote": "Le côté éphémère et rapide de l'utilisation des options de Snapchat attire plus les jeunes que les utilisateurs plus âgés."
      },
      {
        "id": 4,
        "question": "Quel est le nouveau nom de l'entreprise chargée de gérer Snapchat ?",
        "propositions": [
          "Enbridge",
          "Celestia",
          "Snap Inc.",
          "Brady"
        ],
        "réponse": "Snap Inc.",
        "anecdote": "L'entreprise Snapchat Inc. fut créée en septembre 2011, mois qui marqua le lancement de Snapchat sur l'App Store."
      },
      {
        "id": 5,
        "question": "Quel élément de Snapchat a été modifié début février 2018 ?",
        "propositions": [
          "Prix",
          "PDG",
          "Publicité",
          "Interface"
        ],
        "réponse": "Interface",
        "anecdote": "Une pétition regroupant plus d'un million de signatures fut même lancée pour réclamer le retour à l'ancienne version."
      },
      {
        "id": 6,
        "question": "Sous quels environnements l'application Snapchat est-elle disponible ?",
        "propositions": [
          "Windows et IOS",
          "Palm et Windows",
          "IOS et Palm",
          "IOS et Android"
        ],
        "réponse": "IOS et Android",
        "anecdote": "Suite au piratage dont Snapchat a été victime le 31 décembre 2013, l'application n'est plus disponible sous Windows Phone."
      },
      {
        "id": 7,
        "question": "Quelle couleur est généralement associée à Snapchat ?",
        "propositions": [
          "Bleu",
          "Jaune",
          "Rouge",
          "Vert"
        ],
        "réponse": "Jaune",
        "anecdote": "Le fantôme sur fond jaune permet d'immédiatement identifier un utilisateur qui se connecte au réseau social Snapchat."
      },
      {
        "id": 8,
        "question": "Dans quel État des États-Unis l'application Snapchat a-t-elle été développée ?",
        "propositions": [
          "Ohio",
          "Montana",
          "Texas",
          "Californie"
        ],
        "réponse": "Californie",
        "anecdote": "L'économie de la Californie représente 13 % du PIB des États-Unis et serait à elle seule la sixième puissance économique mondiale."
      },
      {
        "id": 9,
        "question": "Quelle est la durée minimale d'une publication sur Snapchat ?",
        "propositions": [
          "6 secondes",
          "10 secondes",
          "1 seconde",
          "15 secondes"
        ],
        "réponse": "1 seconde",
        "anecdote": "Cette période de temps va en fait d'une à dix secondes, mais aussi, depuis récemment, sans limite de durée."
      },
      {
        "id": 10,
        "question": "Sur quelle plateforme Snapchat a-t-il été lancé en premier ?",
        "propositions": [
          "Google Play",
          "F-Droid",
          "Apple Store",
          "Ovi Store"
        ],
        "réponse": "Apple Store",
        "anecdote": "L'application Snapchat a été lancée en septembre 2011 sur l'App Store d'Apple, puis en novembre 2012 sur Android."
      }
    ],
    "confirmé": [
      {
        "id": 11,
        "question": "Quel est l'âge requis pour télécharger et utiliser l'application Snapchat ?",
        "propositions": [
          "13 ans",
          "15 ans",
          "17 ans",
          "21 ans"
        ],
        "réponse": "13 ans",
        "anecdote": "La particularité de cette application est l'existence d'une limite de temps de visualisation du média envoyé à ses destinataires."
      },
      {
        "id": 12,
        "question": "Combien de snaps environ sont échangés chaque jour dans le monde ?",
        "propositions": [
          "350 millions",
          "250 millions",
          "150 millions",
          "450 millions"
        ],
        "réponse": "350 millions",
        "anecdote": "Depuis 2014, un chat a été inséré dans l'application ainsi qu'un détecteur de présence pour discuter en direct via caméra interposée."
      },
      {
        "id": 13,
        "question": "Quelle moyenne de temps les utilisateurs passent-ils chaque jour sur Snapchat ?",
        "propositions": [
          "2 heures",
          "1 heure",
          "30 minutes",
          "3 heures"
        ],
        "réponse": "30 minutes",
        "anecdote": "Snapchat possède des fonctionnalités ludiques et interactives qui font que les snapchateurs utilisent le réseau social tous les jours."
      },
      {
        "id": 14,
        "question": "Qui est devenu milliardaire à l'âge de 24 ans grâce à Snapchat ?",
        "propositions": [
          "Evan Spiegel",
          "Jeff Bezos",
          "Tom Golisano",
          "Paul Allen"
        ],
        "réponse": "Evan Spiegel",
        "anecdote": "Evan Thomas Spiegel est en couple avec le mannequin Miranda Kerr depuis 2015, avec qui il a déjà deux enfants."
      },
      {
        "id": 15,
        "question": "Quelle somme Facebook a-t-il proposé pour le rachat de Snapchat ?",
        "propositions": [
          "7 milliards",
          "5 milliards",
          "1 milliard",
          "3 milliards"
        ],
        "réponse": "3 milliards",
        "anecdote": "Snapchat aurait également rejeté deux offres de 4 milliards de dollars, une du chinois Tencent, l'autre de Google."
      },
      {
        "id": 16,
        "question": "Combien de millions d'abonnés actifs à Snapchat comptait-on en 2015 ?",
        "propositions": [
          "200",
          "50",
          "100",
          "150"
        ],
        "réponse": "200",
        "anecdote": "En 2015, Snapchat connaît sa plus forte évolution en affichant +55 % de progression, surtout boostée par la publicité des annonceurs."
      },
      {
        "id": 17,
        "question": "Quelle fonctionnalité permet de stocker des snaps dans un espace privé ?",
        "propositions": [
          "Memories",
          "Mysnap",
          "iCloud",
          "Snapme"
        ],
        "réponse": "Memories",
        "anecdote": "Le contenu ainsi sauvegardé peut être recherché par date ou en utilisant un système de reconnaissance d'objets local."
      },
      {
        "id": 18,
        "question": "Depuis quelle année la Snap Map permet-elle de localiser ses amis ?",
        "propositions": [
          "2017",
          "2015",
          "2016",
          "2018"
        ],
        "réponse": "2017",
        "anecdote": "Les amis sont symbolisés par leur représentation en Actionmoji (ou un personnage standard s'il n'ont pas créé de Bitmoji)."
      },
      {
        "id": 19,
        "question": "Quel était le nombre d'utilisateurs moyen par jour de Snapchat en 2017 ?",
        "propositions": [
          "166 millions",
          "106 millions",
          "146 millions",
          "126 millions"
        ],
        "réponse": "166 millions",
        "anecdote": "Les applications de réseaux sociaux sont souvent pointées du doigt du fait de l'exploitation commerciale de données personnelles."
      },
      {
        "id": 20,
        "question": "Quel moment de la journée génère une hausse d'utilisation de Snapchat ?",
        "propositions": [
          "Matinée",
          "Midi",
          "Fin de journée",
          "Nuit"
        ],
        "réponse": "Fin de journée",
        "anecdote": "35 % des utilisateurs de Snapchat ne se retrouvent pas le même jour sur une discussion instantanée d'un autre réseau."
      }
    ],
    "expert": [
      {
        "id": 21,
        "question": "Pour quel pourcentage des revenus de Snapchat les États-Unis interviennent-ils ?",
        "propositions": [
          "75 %",
          "65 %",
          "95 %",
          "85 %"
        ],
        "réponse": "95 %",
        "anecdote": "Les revenus liés à la publicité de Snapchat ont atteint les 366 millions de dollars en 2016 et devraient encore augmenter."
      },
      {
        "id": 22,
        "question": "Avec quel service de paiement Snapchat est-il associé depuis 2014 ?",
        "propositions": [
          "Square",
          "Bitcoin",
          "O-Secure",
          "PayPal"
        ],
        "réponse": "Square",
        "anecdote": "Il propose aux utilisateurs du service de messages éphémères un outil leur permettant de s'envoyer de l'argent entre eux : Snapcash."
      },
      {
        "id": 23,
        "question": "Quelle paire de lunettes de soleil connectées a été lancée par Snap Inc. ?",
        "propositions": [
          "Spectacles",
          "Mobisun",
          "Connect Eyes",
          "Odyssey"
        ],
        "réponse": "Spectacles",
        "anecdote": "Connectées en bluetooth avec caméra intégrée, ces lunettes permettent de prendre des vidéos avec un angle de 115 degrés."
      },
      {
        "id": 24,
        "question": "Dans quel langage de programmation est principalement écrit Snapchat ?",
        "propositions": [
          "Cobol",
          "Delphi",
          "HTML",
          "Java"
        ],
        "réponse": "Java",
        "anecdote": "Java est un langage de programmation orienté objet créé par deux employés de Sun Microsystems, James Gosling et Patrick Naughton."
      },
      {
        "id": 25,
        "question": "Quelle plateforme Snapchat héberge des chaînes propres à l'application ?",
        "propositions": [
          "Spectacles",
          "Picaboo",
          "Memories",
          "Discover"
        ],
        "réponse": "Discover",
        "anecdote": "Onze premiers partenaires tels que MTV, CNN ou National Geographic alimentent des chaînes avec des contenus exclusifs."
      },
      {
        "id": 26,
        "question": "En quelle année Snapchat a-t-il été victime d'un important piratage le 31 décembre ?",
        "propositions": [
          "2014",
          "2013",
          "2015",
          "2016"
        ],
        "réponse": "2013",
        "anecdote": "À la suite de ces attaques, Snapchat a décidé de faire supprimer toutes les applications tierces des stores (6snap, SaveMySnap, ...)."
      },
      {
        "id": 27,
        "question": "Comment était initialement appelée l'application Snapchat ?",
        "propositions": [
          "Picaboo",
          "Sigrid",
          "Ester",
          "Paola"
        ],
        "réponse": "Picaboo",
        "anecdote": "Alors étudiant en design à Stanford, Evan Thomas propose Snapchat, à l'origine, un projet de classe dont il deviendra CEO."
      },
      {
        "id": 28,
        "question": "Qui complète le trio Snapchat aux côtés d'Evan Spiegel et de Bobby Murphy ?",
        "propositions": [
          "Jim Walton",
          "Gabe Newell",
          "Reggie Brown",
          "Mark Cuban"
        ],
        "réponse": "Reggie Brown",
        "anecdote": "Franck Reginald Brown est le premier qui a eu l'idée à l'origine de créer une application permettant d'envoyer des photos éphémères."
      },
      {
        "id": 29,
        "question": "Quelle application permettant de réserver des sorties a été rachetée par Snapchat ?",
        "propositions": [
          "Sign",
          "Next",
          "Park",
          "Vurb"
        ],
        "réponse": "Vurb",
        "anecdote": "C'est en août 2016 que Snapchat a racheté pour 110 millions l'application Vurb qui permet de réserver des services de proximité."
      },
      {
        "id": 30,
        "question": "À quelle somme l'entreprise Snapchat était-elle valorisée en 2017 ?",
        "propositions": [
          "34 milliards",
          "14 milliards",
          "4 milliards",
          "24 milliards"
        ],
        "réponse": "24 milliards",
        "anecdote": "L'un des premiers moteurs de performance de Snapchat est tout d'abord son chiffre d'affaires élevé, calculé en millions de dollars."
      }
    ]
    },
    "en": {
      "débutant": [
      {
        "id": 1,
        "question": "What is the logo of the Snapchat mobile app ?",
        "propositions": [
          "Camera",
          "Bear",
          "Monkey",
          "Fantême"
        ],
        "réponse": "Fantême",
        "anecdote": "Snapchat can be seen by anyone, for friends only or for anyone (the so-called ghost mode)."
      },
      {
        "id": 2,
        "question": "Which Snapchat tool has been used since 2014 to send money ?",
        "propositions": [
          "Snapcash",
          "Snapmoney",
          "Snapcoin",
          "Snapsend"
        ],
        "réponse": "Snapcash",
        "anecdote": "The will of Snapchat to keep its users, many associated services have been proposed lately."
      },
      {
        "id": 3,
        "question": "What is the age range of 85 % of Snapchat users ?",
        "propositions": [
          "13 to 34 years",
          "60 to 78 years",
          "47 to 59 years",
          "35 to 46 years"
        ],
        "réponse": "13 to 34 years",
        "anecdote": "The quick and fast use of Snapchat's options attracts more young people than older users."
      },
      {
        "id": 4,
        "question": "What is the new name of the company responsible for managing Snapchat ?",
        "propositions": [
          "Celestia",
          "Enbridge",
          "Brady",
          "Snap Inc."
        ],
        "réponse": "Snap Inc.",
        "anecdote": "Snapchat Inc. was established in September 2011, the month that launched Snapchat on the App Store."
      },
      {
        "id": 5,
        "question": "What element of Snapchat was changed early February 2018 ?",
        "propositions": [
          "Interface",
          "Price",
          "CEO",
          "Publicity"
        ],
        "réponse": "Interface",
        "anecdote": "A petition with more than one million signatures was launched to claim the return to the old version."
      },
      {
        "id": 6,
        "question": "In which environments is the Snapchat application available ?",
        "propositions": [
          "IOS and Palm",
          "Windows and IOS",
          "Android and Windows",
          "IOS and Android"
        ],
        "réponse": "IOS and Android",
        "anecdote": "Following the hacking that Snapchat suffered on December 31, 2013, the application is no longer available under Windows Phone."
      },
      {
        "id": 7,
        "question": "What color is most often associated with Snapchat ?",
        "propositions": [
          "Yellow",
          "Blue",
          "Green",
          "Red"
        ],
        "réponse": "Yellow",
        "anecdote": "The ghost on a yellow background makes it possible to immediately identify a user who connects to the Snapchat social network."
      },
      {
        "id": 8,
        "question": "In what state of the United States has the Snapchat app been developed ?",
        "propositions": [
          "Montana",
          "California",
          "Ohio",
          "Texas"
        ],
        "réponse": "California",
        "anecdote": "California's economy accounts for 13 percent of US GDP and is believed to be the world's sixth-largest economy."
      },
      {
        "id": 9,
        "question": "What is the minimum duration of a Snapchat post ?",
        "propositions": [
          "10 seconds",
          "6 seconds",
          "1 second",
          "10 seconds"
        ],
        "réponse": "1 second",
        "anecdote": "This period of time is actually one to ten seconds, but also, since recently, no time limit."
      },
      {
        "id": 10,
        "question": "Which Snapchat platform was launched first ?",
        "propositions": [
          "Ovi Store",
          "Google Play",
          "Apple Store",
          "F-Droid"
        ],
        "réponse": "Apple Store",
        "anecdote": "The Snapchat app was launched in September 2011 on the Apple App Store and in November 2012 on Android."
      }
    ],
    "confirmé": [
      {
        "id": 11,
        "question": "What is the age required to download and use the Snapchat app ?",
        "propositions": [
          "13 years old",
          "21 years old",
          "15 years old",
          "17 years old"
        ],
        "réponse": "13 years old",
        "anecdote": "The peculiarity of this application is the existence of a time limit for viewing the media sent to its recipients."
      },
      {
        "id": 12,
        "question": "How many snaps are exchanged each day in the world ?",
        "propositions": [
          "150 million",
          "350 million",
          "450 million",
          "250 million"
        ],
        "réponse": "350 million",
        "anecdote": "Since 2014, a chat has been inserted in the application as well as a presence detector to chat live via camera."
      },
      {
        "id": 13,
        "question": "How much time do users spend each day on Snapchat ?",
        "propositions": [
          "30 minutes",
          "3 hours",
          "2 hours",
          "1 hour"
        ],
        "réponse": "30 minutes",
        "anecdote": "Snapchat has fun and interactive features that make it easy for social bookers to use the social network every day."
      },
      {
        "id": 14,
        "question": "Who became a billionaire at the age of 24 thanks to Snapchat ?",
        "propositions": [
          "Paul Allen",
          "Jeff Bezos",
          "Tom Golisano",
          "Evan Spiegel"
        ],
        "réponse": "Evan Spiegel",
        "anecdote": "Evan Thomas Spiegel is in a relationship with model Miranda Kerr since 2015, with whom he will soon be dad."
      },
      {
        "id": 15,
        "question": "How much Facebook has he proposed for the acquisition of Snapchat ?",
        "propositions": [
          "7 billion",
          "3 billion",
          "1 billion",
          "5 billion"
        ],
        "réponse": "3 billion",
        "anecdote": "Snapchat is also reported to have rejected two $ 4 billion offers, one from Tencent, the other from Google."
      },
      {
        "id": 16,
        "question": "How many millions of active subscribers was Snapchat counted in 2015 ?",
        "propositions": [
          "150",
          "50",
          "100",
          "200"
        ],
        "réponse": "200",
        "anecdote": "In 2015, Snapchat experienced its strongest growth, posting 55 % growth, especially boosted by advertiser advertising."
      },
      {
        "id": 17,
        "question": "What functionality can store snaps in a private space ?",
        "propositions": [
          "Memories",
          "Mysnap",
          "iCloud",
          "Snapme"
        ],
        "réponse": "Memories",
        "anecdote": "The content thus saved can be searched by date or by using a local object recognition system."
      },
      {
        "id": 18,
        "question": "Since when has Snap Map been able to locate friends ?",
        "propositions": [
          "2018",
          "2016",
          "2017",
          "2015"
        ],
        "réponse": "2017",
        "anecdote": "Friends are symbolized by their representation in Actionmoji (or a standard character if they have not created Bitmoji)."
      },
      {
        "id": 19,
        "question": "What was the average number of users per day of Snapchat in 2017 ?",
        "propositions": [
          "126 million",
          "146 million",
          "166 million",
          "106 million"
        ],
        "réponse": "166 million",
        "anecdote": "Social networking applications are often singled out for commercial exploitation of personal data."
      },
      {
        "id": 20,
        "question": "What time of day generates a rise in Snapchat usage ?",
        "propositions": [
          "End of day",
          "Morning",
          "Night",
          "Midi"
        ],
        "réponse": "End of day",
        "anecdote": "35 % of Snapchat users do not end up on the same day on an instant chat from another network."
      }
    ],
    "expert": [
      {
        "id": 21,
        "question": "What percentage of Snapchat's revenues does the US contribute to ?",
        "propositions": [
          "75 %",
          "95 %",
          "65 %",
          "85 %"
        ],
        "réponse": "95 %",
        "anecdote": "Snapchat's advertising revenues reached $ 366 million in 2016 and are expected to increase further."
      },
      {
        "id": 22,
        "question": "With which payment service is Snapchat associated since 2014 ?",
        "propositions": [
          "Bitcoin",
          "PayPal",
          "O-Secure",
          "Square"
        ],
        "réponse": "Square",
        "anecdote": "It offers users of the e-mail service a tool to send money to each other : Snapcash."
      },
      {
        "id": 23,
        "question": "What pair of connected sunglasses was launched by Snap Inc. ?",
        "propositions": [
          "Connect Eyes",
          "Odyssey",
          "Mobisun",
          "Shows"
        ],
        "réponse": "Shows",
        "anecdote": "Connected in bluetooth with built-in camcorder, these glasses can take videos with an angle of 115 degrees."
      },
      {
        "id": 24,
        "question": "In which programming language is mainly written Snapchat ?",
        "propositions": [
          "Java",
          "Delphi",
          "HTML",
          "Cobol"
        ],
        "réponse": "Java",
        "anecdote": "Java is an object-oriented programming language created by two Sun Microsystems employees, James Gosling and Patrick Naughton."
      },
      {
        "id": 25,
        "question": "Which Snapchat platform hosts application-specific channels ?",
        "propositions": [
          "Picaboo",
          "Discover",
          "Shows",
          "Memories"
        ],
        "réponse": "Discover",
        "anecdote": "Eleven top partners such as MTV, CNN or National Geographic feed channels with exclusive content."
      },
      {
        "id": 26,
        "question": "In which year did Snapchat become a victim of significant hacking on December 31st ?",
        "propositions": [
          "2014",
          "2013",
          "2015",
          "2016"
        ],
        "réponse": "2013",
        "anecdote": "As a result of these attacks, Snapchat has decided to have all third-party applications removed from the stores (6snap, SaveMySnap, ...)."
      },
      {
        "id": 27,
        "question": "How was the Snapchat app originally called ?",
        "propositions": [
          "Sigrid",
          "Paola",
          "Ester",
          "Picaboo"
        ],
        "réponse": "Picaboo",
        "anecdote": "While a student of design at Stanford, Evan Thomas offers Snapchat, originally a class project of which he will become CEO."
      },
      {
        "id": 28,
        "question": "Who completes the Snapchat trio alongside Evan Spiegel and Bobby Murphy ?",
        "propositions": [
          "Jim Walton",
          "Gabe Newell",
          "Reggie Brown",
          "Mark Cuban"
        ],
        "réponse": "Reggie Brown",
        "anecdote": "Franck Reginald Brown is the first one who originally thought of creating an application that would allow you to send ephemeral photos."
      },
      {
        "id": 29,
        "question": "Which application to book outings has been purchased by Snapchat ?",
        "propositions": [
          "Next",
          "Sign",
          "Park",
          "Vurb"
        ],
        "réponse": "Vurb",
        "anecdote": "In August 2016, Snapchat bought the Vurb app for $ 110 million, which makes it possible to reserve local services."
      },
      {
        "id": 30,
        "question": "How much was the Snapchat business valued in 2017 ?",
        "propositions": [
          "4 billion",
          "24 billion",
          "14 billion",
          "34 billion"
        ],
        "réponse": "24 billion",
        "anecdote": "One of Snapchat's first performance drivers is its high turnover, calculated in millions of dollars."
      }
    ]
    },
    "de": {
      "débutant": [
      {
        "id": 1,
        "question": "Was ist das Logo der Snapchat Mobile App ?",
        "propositions": [
          "Fantême",
          "Bär",
          "Kamera",
          "Affe"
        ],
        "réponse": "Fantême",
        "anecdote": "Snapchat kann von jedem gesehen werden, nur für Freunde oder für jeden (der sogenannte Ghost-Modus)."
      },
      {
        "id": 2,
        "question": "Mit welchem Snapchat-Tool wurde seit 2014 Geld verschickt ?",
        "propositions": [
          "Snapsend",
          "Snapcoin",
          "Snapmoney",
          "Snapcash"
        ],
        "réponse": "Snapcash",
        "anecdote": "Dem Willen von Snapchat, seine Nutzer zu halten, sind in letzter Zeit viele damit verbundene Dienste vorgeschlagen worden."
      },
      {
        "id": 3,
        "question": "Was ist die Altersspanne von 85 % der Snapchat-Nutzer ?",
        "propositions": [
          "13 bis 34 Jahre",
          "35 bis 46 Jahre",
          "47 bis 59 Jahre",
          "60 bis 78 Jahre"
        ],
        "réponse": "13 bis 34 Jahre",
        "anecdote": "Die schnelle und schnelle Nutzung der Optionen von Snapchat zieht mehr junge Menschen als ältere Nutzer an."
      },
      {
        "id": 4,
        "question": "Wie lautet der neue Name des Unternehmens, das für die Verwaltung von Snapchat verantwortlich ist ?",
        "propositions": [
          "Celestia",
          "Snap Inc.",
          "Enbridge",
          "Brady"
        ],
        "réponse": "Snap Inc.",
        "anecdote": "Snapchat Inc. wurde im September 2011 gegründet, dem Monat, in dem Snapchat im App Store eingeführt wurde."
      },
      {
        "id": 5,
        "question": "Welches Element von Snapchat wurde Anfang Februar 2018 geändert ?",
        "propositions": [
          "Werbung",
          "CEO",
          "Schnittstelle",
          "Preis"
        ],
        "réponse": "Schnittstelle",
        "anecdote": "Eine Petition mit mehr als einer Million Unterschriften wurde eingereicht, um die Rückkehr zur alten Version zu fordern."
      },
      {
        "id": 6,
        "question": "In welchen Umgebungen ist die Snapchat-Anwendung verfügbar ?",
        "propositions": [
          "Android und Windows",
          "Windows und IOS",
          "IOS und Android",
          "IOS und Palm"
        ],
        "réponse": "IOS und Android",
        "anecdote": "Nach dem Hacking, dem Snapchat am 31. Dezember 2013 zum Opfer fiel, ist die Anwendung unter Windows Phone nicht mehr verfügbar."
      },
      {
        "id": 7,
        "question": "Welche Farbe wird am häufigsten mit Snapchat in Verbindung gebracht ?",
        "propositions": [
          "Blau",
          "Rot",
          "Gelb",
          "Grün"
        ],
        "réponse": "Gelb",
        "anecdote": "Mit dem Geist auf gelbem Hintergrund können Sie sofort einen Benutzer identifizieren, der sich mit dem sozialen Netzwerk von Snapchat verbindet."
      },
      {
        "id": 8,
        "question": "In welchem Bundesstaat der USA wurde die Snapchat-App entwickelt ?",
        "propositions": [
          "Ohio",
          "Kalifornien",
          "Texas",
          "Montana"
        ],
        "réponse": "Kalifornien",
        "anecdote": "Kaliforniens Wirtschaft macht 13 Prozent des US-BIP aus und gilt als die sechstgrößte Volkswirtschaft der Welt."
      },
      {
        "id": 9,
        "question": "Wie lange dauert ein Snapchat-Beitrag mindestens ?",
        "propositions": [
          "10 Sekunden",
          "10 Sekunden",
          "1 Sekunde",
          "6 Sekunden"
        ],
        "réponse": "1 Sekunde",
        "anecdote": "Diese Zeitspanne beträgt tatsächlich ein bis zehn Sekunden, aber auch seit kurzem keine zeitliche Begrenzung."
      },
      {
        "id": 10,
        "question": "Welche Snapchat-Plattform wurde zuerst gestartet ?",
        "propositions": [
          "Apple Store",
          "Google Play",
          "F-Droid",
          "Ovi Store"
        ],
        "réponse": "Apple Store",
        "anecdote": "Die Snapchat-App wurde im September 2011 im Apple App Store und im November 2012 auf Android gestartet."
      }
    ],
    "confirmé": [
      {
        "id": 11,
        "question": "In welchem Alter kann die Snapchat-App heruntergeladen und verwendet werden ?",
        "propositions": [
          "21 Jahre alt",
          "15 Jahre alt",
          "17 Jahre alt",
          "13 Jahre alt"
        ],
        "réponse": "13 Jahre alt",
        "anecdote": "Die Besonderheit dieser Anwendung ist das Vorhandensein einer Frist für die Anzeige der an die Empfänger gesendeten Medien."
      },
      {
        "id": 12,
        "question": "Wie viele Schnappschüsse werden täglich auf der Welt ausgetauscht ?",
        "propositions": [
          "250 Millionen",
          "350 Millionen",
          "450 Millionen",
          "150 Millionen"
        ],
        "réponse": "350 Millionen",
        "anecdote": "Seit 2014 ist in der Anwendung ein Chat sowie ein Präsenzmelder zum Live-Chatten mit der Kamera eingefügt."
      },
      {
        "id": 13,
        "question": "Wie viel Zeit verbringen Benutzer täglich mit Snapchat ?",
        "propositions": [
          "1 Stunde",
          "3 Stunden",
          "2 Stunden",
          "30 Minuten"
        ],
        "réponse": "30 Minuten",
        "anecdote": "Snapchat bietet unterhaltsame und interaktive Funktionen, die es Social Bookern erleichtern, das soziale Netzwerk jeden Tag zu nutzen."
      },
      {
        "id": 14,
        "question": "Wer wurde im Alter von 24 Jahren dank Snapchat Milliardär ?",
        "propositions": [
          "Paul Allen",
          "Evan Spiegel",
          "Jeff Bezos",
          "Tom Golisano"
        ],
        "réponse": "Evan Spiegel",
        "anecdote": "Evan Thomas Spiegel steht seit 2015 in einer Beziehung mit Model Miranda Kerr, mit der er bald Vater sein wird."
      },
      {
        "id": 15,
        "question": "Wie viel Facebook hat er für die Akquisition von Snapchat vorgeschlagen ?",
        "propositions": [
          "7 milliarden",
          "5 Milliarden",
          "1 Milliarde",
          "3 Milliarden"
        ],
        "réponse": "3 Milliarden",
        "anecdote": "Von Snapchat wird auch berichtet, dass er zwei 4-Milliarden-Dollar-Angebote abgelehnt hat, eines von Tencent und eines von Google."
      },
      {
        "id": 16,
        "question": "Wie viele Millionen aktive Abonnenten wurden 2015 von Snapchat gezählt ?",
        "propositions": [
          "50",
          "150",
          "100",
          "200"
        ],
        "réponse": "200",
        "anecdote": "Im Jahr 2015 verzeichnete Snapchat das stärkste Wachstum und verzeichnete ein Wachstum von 55 %, insbesondere dank der Werbung für Werbetreibende."
      },
      {
        "id": 17,
        "question": "Welche Funktionen können Schnappschüsse in einem privaten Bereich speichern ?",
        "propositions": [
          "Snapme",
          "iCloud",
          "Erinnerungen",
          "Mysnap"
        ],
        "réponse": "Erinnerungen",
        "anecdote": "Der so gespeicherte Inhalt kann nach Datum oder unter Verwendung eines lokalen Objekterkennungssystems durchsucht werden."
      },
      {
        "id": 18,
        "question": "Seit wann kann Snap Map Freunde finden ?",
        "propositions": [
          "2015",
          "2018",
          "2017",
          "2016"
        ],
        "réponse": "2017",
        "anecdote": "Freunde werden durch ihre Darstellung in Actionmoji symbolisiert (oder durch einen Standardcharakter, wenn sie kein Bitmoji erstellt haben)."
      },
      {
        "id": 19,
        "question": "Wie viele Nutzer hat Snapchat im Jahr 2017 durchschnittlich pro Tag ?",
        "propositions": [
          "166 Millionen",
          "146 Millionen",
          "106 Millionen",
          "126 Millionen"
        ],
        "réponse": "166 Millionen",
        "anecdote": "Social-Networking-Anwendungen werden häufig für die kommerzielle Nutzung personenbezogener Daten ausgewählt."
      },
      {
        "id": 20,
        "question": "Zu welcher Tageszeit steigt die Nutzung von Snapchat ?",
        "propositions": [
          "Ende des Tages",
          "Midi",
          "Morgen",
          "Nacht"
        ],
        "réponse": "Ende des Tages",
        "anecdote": "35 % der Snapchat-Nutzer landen nicht am selben Tag in einem Sofort-Chat eines anderen Netzwerks."
      }
    ],
    "expert": [
      {
        "id": 21,
        "question": "Zu wie viel Prozent der Einnahmen von Snapchat tragen die USA bei ?",
        "propositions": [
          "65 %",
          "95 %",
          "85 %",
          "75 %"
        ],
        "réponse": "95 %",
        "anecdote": "Die Werbeeinnahmen von Snapchat beliefen sich 2016 auf 366 Millionen US-Dollar und werden voraussichtlich weiter steigen."
      },
      {
        "id": 22,
        "question": "Mit welchem Zahlungsdienst ist Snapchat seit 2014 verbunden ?",
        "propositions": [
          "O-Secure",
          "Bitcoin",
          "PayPal",
          "Platz"
        ],
        "réponse": "Platz",
        "anecdote": "Es bietet Benutzern des E-Mail-Dienstes ein Tool zum gegenseitigen Senden von Geldern : Snapcash."
      },
      {
        "id": 23,
        "question": "Welche verbundene Sonnenbrille wurde von Snap Inc. auf den Markt gebracht ?",
        "propositions": [
          "Mobisun",
          "Shows",
          "Odyssee",
          "Augen verbinden"
        ],
        "réponse": "Shows",
        "anecdote": "Diese Brille ist über Bluetooth mit einem eingebauten Camcorder verbunden und kann Videos mit einem Winkel von 115 Grad aufnehmen."
      },
      {
        "id": 24,
        "question": "In welcher Programmiersprache ist hauptsächlich Snapchat geschrieben ?",
        "propositions": [
          "Java",
          "Delphi",
          "HTML",
          "Cobol"
        ],
        "réponse": "Java",
        "anecdote": "Java ist eine objektorientierte Programmiersprache, die von den beiden Sun Microsystems-Mitarbeitern James Gosling und Patrick Naughton entwickelt wurde."
      },
      {
        "id": 25,
        "question": "Welche Snapchat-Plattform hostet anwendungsspezifische Kanäle ?",
        "propositions": [
          "Picaboo",
          "Erinnerungen",
          "Shows",
          "Entdecken Sie"
        ],
        "réponse": "Entdecken Sie",
        "anecdote": "Elf Top-Partner wie MTV, CNN oder National Geographic mit exklusiven Inhalten."
      },
      {
        "id": 26,
        "question": "In welchem Jahr wurde Snapchat am 31. Dezember Opfer erheblicher Hackerangriffe ?",
        "propositions": [
          "2014",
          "2013",
          "2016",
          "2015"
        ],
        "réponse": "2013",
        "anecdote": "Als Ergebnis dieser Angriffe hat Snapchat beschlossen, alle Anwendungen von Drittanbietern aus den Stores zu entfernen (6snap, SaveMySnap, ...)."
      },
      {
        "id": 27,
        "question": "Wie hieß die Snapchat-App ursprünglich ?",
        "propositions": [
          "Paola",
          "Picaboo",
          "Sigrid",
          "Ester"
        ],
        "réponse": "Picaboo",
        "anecdote": "Als Designstudent bei Stanford bietet Evan Thomas Snapchat an, ursprünglich ein Klassenprojekt, dessen CEO er werden wird."
      },
      {
        "id": 28,
        "question": "Wer komplettiert das Snapchat-Trio neben Evan Spiegel und Bobby Murphy ?",
        "propositions": [
          "Mark Cuban",
          "Gabe Newell",
          "Reggie Brown",
          "Jim Walton"
        ],
        "réponse": "Reggie Brown",
        "anecdote": "Franck Reginald Brown ist der erste, der ursprünglich daran gedacht hat, eine Anwendung zu erstellen, mit der Sie kurzlebige Fotos senden können."
      },
      {
        "id": 29,
        "question": "Welche Anwendung zur Buchung von Ausflügen wurde von Snapchat gekauft ?",
        "propositions": [
          "Zeichen",
          "Vurb",
          "Park",
          "Nächste"
        ],
        "réponse": "Vurb",
        "anecdote": "Im August 2016 kaufte Snapchat die Vurb-App für 110 Millionen US-Dollar, mit der lokale Dienste reserviert werden können."
      },
      {
        "id": 30,
        "question": "Wie viel wurde das Snapchat-Geschäft im Jahr 2017 geschätzt ?",
        "propositions": [
          "4 Milliarden",
          "34 Milliarden",
          "14 Milliarden",
          "24 Milliarden"
        ],
        "réponse": "24 Milliarden",
        "anecdote": "Einer der ersten Leistungstreiber von Snapchat ist der hohe Umsatz in Millionen Dollar."
      }
    ]
    },
    "es": {
      "débutant": [
      {
        "id": 1,
        "question": "¿Cuál es el logo de la aplicación móvil Snapchat ?",
        "propositions": [
          "Cámara",
          "Oso",
          "Fantême",
          "Mono"
        ],
        "réponse": "Fantême",
        "anecdote": "Snapchat puede ser visto por cualquiera, solo para amigos o para cualquiera (el llamado modo fantasma)."
      },
      {
        "id": 2,
        "question": "¿Qué herramienta de Snapchat se ha usado desde 2014 para enviar dinero ?",
        "propositions": [
          "Snapmoney",
          "Snapsend",
          "Snapcash",
          "Snapcoin"
        ],
        "réponse": "Snapcash",
        "anecdote": "La voluntad de Snapchat de mantener a sus usuarios, muchos servicios asociados se han propuesto recientemente."
      },
      {
        "id": 3,
        "question": "¿Cuál es el rango de edad del 85 % de los usuarios de Snapchat ?",
        "propositions": [
          "13 a 34 años",
          "35 a 46 años",
          "60 a 78 años",
          "47 a 59 años"
        ],
        "réponse": "13 a 34 años",
        "anecdote": "El uso rápido y rápido de las opciones de Snapchat atrae a más jóvenes que usuarios mayores."
      },
      {
        "id": 4,
        "question": "¿Cuál es el nuevo nombre de la empresa responsable de administrar Snapchat ?",
        "propositions": [
          "Celestia",
          "Snap Inc.",
          "Brady",
          "Enbridge"
        ],
        "réponse": "Snap Inc.",
        "anecdote": "Snapchat Inc. se estableció en septiembre de 2011, el mes en que se lanzó Snapchat en la App Store."
      },
      {
        "id": 5,
        "question": "¿Qué elemento de Snapchat cambió a principios de febrero de 2018 ?",
        "propositions": [
          "Interfaz",
          "Precio",
          "CEO",
          "Publicidad"
        ],
        "réponse": "Interfaz",
        "anecdote": "Se lanzó una petición con más de un millón de firmas para reclamar el regreso a la versión anterior."
      },
      {
        "id": 6,
        "question": "¿En qué entornos está disponible la aplicación Snapchat ?",
        "propositions": [
          "IOS y Android",
          "Android y Windows",
          "IOS y Palm",
          "Windows e IOS"
        ],
        "réponse": "IOS y Android",
        "anecdote": "Tras el pirateo que sufrió Snapchat el 31 de diciembre de 2013, la aplicación ya no está disponible en Windows Phone."
      },
      {
        "id": 7,
        "question": "¿Qué color se asocia más a menudo con Snapchat ?",
        "propositions": [
          "Azul",
          "Verde",
          "Amarillo",
          "Rojo"
        ],
        "réponse": "Amarillo",
        "anecdote": "El fantasma sobre un fondo amarillo permite identificar inmediatamente a un usuario que se conecta a la red social Snapchat."
      },
      {
        "id": 8,
        "question": "¿En qué estado de los Estados Unidos se ha desarrollado la aplicación Snapchat ?",
        "propositions": [
          "Ohio",
          "Texas",
          "Montana",
          "California"
        ],
        "réponse": "California",
        "anecdote": "La economía de California representa el 13 por ciento del PIB de los EE. UU. Y se cree que es la sexta economía más grande del mundo."
      },
      {
        "id": 9,
        "question": "¿Cuál es la duración mínima de una publicación de Snapchat ?",
        "propositions": [
          "1 segundo",
          "6 segundos",
          "10 segundos",
          "10 segundos"
        ],
        "réponse": "1 segundo",
        "anecdote": "Este período de tiempo es en realidad de uno a diez segundos, pero también, desde hace poco, no hay límite de tiempo."
      },
      {
        "id": 10,
        "question": "¿Qué plataforma de Snapchat se lanzó primero ?",
        "propositions": [
          "Tienda Ovi",
          "Apple Store",
          "F-Droid",
          "Google Play"
        ],
        "réponse": "Apple Store",
        "anecdote": "La aplicación Snapchat se lanzó en septiembre de 2011 en Apple App Store y en noviembre de 2012 en Android."
      }
    ],
    "confirmé": [
      {
        "id": 11,
        "question": "¿Cuál es la edad requerida para descargar y usar la aplicación Snapchat ?",
        "propositions": [
          "21 años de edad",
          "13 años de edad",
          "17 años de edad",
          "15 años de edad"
        ],
        "réponse": "13 años de edad",
        "anecdote": "La peculiaridad de esta aplicación es la existencia de un límite de tiempo para ver los medios enviados a sus destinatarios."
      },
      {
        "id": 12,
        "question": "¿Cuántas instantáneas se intercambian cada día en el mundo ?",
        "propositions": [
          "250 millones",
          "150 millones",
          "350 millones",
          "450 millones"
        ],
        "réponse": "350 millones",
        "anecdote": "Desde 2014, se ha insertado un chat en la aplicación, así como un detector de presencia para chatear en vivo a través de la cámara."
      },
      {
        "id": 13,
        "question": "¿Cuánto tiempo pasan los usuarios cada día en Snapchat ?",
        "propositions": [
          "1 hora",
          "30 minutos",
          "2 horas",
          "3 horas"
        ],
        "réponse": "30 minutos",
        "anecdote": "Snapchat tiene funciones divertidas e interactivas que facilitan el uso de las redes sociales todos los días."
      },
      {
        "id": 14,
        "question": "¿Quién se convirtió en multimillonario a los 24 años gracias a Snapchat ?",
        "propositions": [
          "Evan Spiegel",
          "Tom Golisano",
          "Paul Allen",
          "Jeff Bezos"
        ],
        "réponse": "Evan Spiegel",
        "anecdote": "Evan Thomas Spiegel está en una relación con la modelo Miranda Kerr desde 2015, con quien pronto será papá."
      },
      {
        "id": 15,
        "question": "¿Cuánto ha propuesto Facebook para la adquisición de Snapchat ?",
        "propositions": [
          "3 mil millones",
          "Mil millones",
          "7 mil millones",
          "5 mil millones"
        ],
        "réponse": "3 mil millones",
        "anecdote": "También se informa que Snapchat rechazó dos ofertas de $ 4 mil millones, una de Tencent y la otra de Google."
      },
      {
        "id": 16,
        "question": "¿Cuántos millones de suscriptores activos se contó Snapchat en 2015 ?",
        "propositions": [
          "200",
          "100",
          "50",
          "150"
        ],
        "réponse": "200",
        "anecdote": "En 2015, Snapchat experimentó su mayor crecimiento, publicando un crecimiento de 55 %, especialmente impulsado por la publicidad del anunciante."
      },
      {
        "id": 17,
        "question": "¿Qué funcionalidad puede almacenar instantáneas en un espacio privado ?",
        "propositions": [
          "Snapme",
          "iCloud",
          "Recuerdos",
          "Mysnap"
        ],
        "réponse": "Recuerdos",
        "anecdote": "El contenido así guardado se puede buscar por fecha o mediante un sistema local de reconocimiento de objetos."
      },
      {
        "id": 18,
        "question": "¿Desde cuándo Snap Map ha podido localizar amigos ?",
        "propositions": [
          "2018",
          "2017",
          "2016",
          "2015"
        ],
        "réponse": "2017",
        "anecdote": "Los amigos están simbolizados por su representación en Actionmoji (o un personaje estándar si no han creado Bitmoji)."
      },
      {
        "id": 19,
        "question": "¿Cuál fue el número promedio de usuarios por día de Snapchat en 2017 ?",
        "propositions": [
          "126 millones",
          "106 millones",
          "166 millones",
          "146 millones"
        ],
        "réponse": "166 millones",
        "anecdote": "Las aplicaciones de redes sociales a menudo se seleccionan para la explotación comercial de datos personales."
      },
      {
        "id": 20,
        "question": "¿A qué hora del día se genera un aumento en el uso de Snapchat ?",
        "propositions": [
          "Fin del día",
          "Midi",
          "Mañana",
          "Noche"
        ],
        "réponse": "Fin del día",
        "anecdote": "El 35 % de los usuarios de Snapchat no terminan el mismo día en un chat instantáneo desde otra red."
      }
    ],
    "expert": [
      {
        "id": 21,
        "question": "¿A qué porcentaje de los ingresos de Snapchat contribuye Estados Unidos ?",
        "propositions": [
          "85 %",
          "65 %",
          "75 %",
          "95 %"
        ],
        "réponse": "95 %",
        "anecdote": "Los ingresos publicitarios de Snapchat alcanzaron los $ 366 millones en 2016 y se espera que aumenten aún más."
      },
      {
        "id": 22,
        "question": "¿Con qué servicio de pago está asociado Snapchat desde 2014 ?",
        "propositions": [
          "Plaza",
          "Bitcoin",
          "O-Secure",
          "PayPal"
        ],
        "réponse": "Plaza",
        "anecdote": "Ofrece a los usuarios del servicio de correo electrónico una herramienta para enviarse dinero : Snapcash."
      },
      {
        "id": 23,
        "question": "¿Qué par de gafas de sol conectadas fue lanzado por Snap Inc. ?",
        "propositions": [
          "Mobisun",
          "Muestra",
          "Odisea",
          "Conectar los ojos"
        ],
        "réponse": "Muestra",
        "anecdote": "Conectadas en bluetooth con videocámara incorporada, estas gafas pueden grabar videos con un ángulo de 115 grados."
      },
      {
        "id": 24,
        "question": "¿En qué lenguaje de programación se escribe principalmente Snapchat ?",
        "propositions": [
          "HTML",
          "Delphi",
          "Java",
          "Cobol"
        ],
        "réponse": "Java",
        "anecdote": "Java es un lenguaje de programación orientado a objetos creado por dos empleados de Sun Microsystems, James Gosling y Patrick Naughton."
      },
      {
        "id": 25,
        "question": "¿Qué plataforma de Snapchat aloja canales específicos de la aplicación ?",
        "propositions": [
          "Muestra",
          "Descubrir",
          "Recuerdos",
          "Picaboo"
        ],
        "réponse": "Descubrir",
        "anecdote": "Once socios principales como MTV, CNN o canales de alimentación de National Geographic con contenido exclusivo."
      },
      {
        "id": 26,
        "question": "¿En qué año se convirtió Snapchat en víctima de piratería significativa el 31 de diciembre ?",
        "propositions": [
          "2014",
          "2013",
          "2015",
          "2016"
        ],
        "réponse": "2013",
        "anecdote": "Como resultado de estos ataques, Snapchat ha decidido eliminar todas las aplicaciones de terceros de las tiendas (6snap, SaveMySnap, ...)."
      },
      {
        "id": 27,
        "question": "¿Cómo se llamó originalmente la aplicación Snapchat ?",
        "propositions": [
          "Paola",
          "Picaboo",
          "Sigrid",
          "Éster"
        ],
        "réponse": "Picaboo",
        "anecdote": "Mientras estudiaba diseño en Stanford, Evan Thomas ofrece Snapchat, originalmente un proyecto de clase del cual se convertirá en CEO."
      },
      {
        "id": 28,
        "question": "¿Quién completa el trío de Snapchat junto a Evan Spiegel y Bobby Murphy ?",
        "propositions": [
          "Reggie Brown",
          "Mark Cuban",
          "Jim Walton",
          "Gabe Newell"
        ],
        "réponse": "Reggie Brown",
        "anecdote": "Franck Reginald Brown es el primero que originalmente pensó en crear una aplicación que le permitiera enviar fotos efímeras."
      },
      {
        "id": 29,
        "question": "¿Qué aplicación para reservar salidas ha sido comprada por Snapchat ?",
        "propositions": [
          "Siguiente",
          "Signo",
          "Parque",
          "Vurb"
        ],
        "réponse": "Vurb",
        "anecdote": "En agosto de 2016, Snapchat compró la aplicación Vurb por $ 110 millones, lo que permite reservar servicios locales."
      },
      {
        "id": 30,
        "question": "¿Cuánto se valoró el negocio de Snapchat en 2017 ?",
        "propositions": [
          "24 mil millones",
          "4 mil millones",
          "14 mil millones",
          "34 mil millones"
        ],
        "réponse": "24 mil millones",
        "anecdote": "Uno de los primeros impulsores de rendimiento de Snapchat es su alta rotación, calculada en millones de dólares."
      }
    ]
    },
    "it": {
      "débutant": [
      {
        "id": 1,
        "question": "Qual è il logo dell'app mobile Snapchat ?",
        "propositions": [
          "Fotocamera",
          "Fantême",
          "Scimmia",
          "Orso"
        ],
        "réponse": "Fantême",
        "anecdote": "Snapchat può essere visto da chiunque, solo per amici o per chiunque (la cosiddetta modalità fantasma)."
      },
      {
        "id": 2,
        "question": "Quale strumento Snapchat è stato utilizzato dal 2014 per inviare denaro ?",
        "propositions": [
          "Snapcoin",
          "Snapcash",
          "Snapmoney",
          "Snapsend"
        ],
        "réponse": "Snapcash",
        "anecdote": "La volontà di Snapchat di mantenere i suoi utenti, molti servizi associati sono stati proposti di recente."
      },
      {
        "id": 3,
        "question": "Qual è la fascia di età dell 85 % degli utenti di Snapchat ?",
        "propositions": [
          "13 a 34 anni",
          "47 a 59 anni",
          "60 a 78 anni",
          "35 a 46 anni"
        ],
        "réponse": "13 a 34 anni",
        "anecdote": "L'uso rapido e veloce delle opzioni di Snapchat attira più giovani che utenti più anziani."
      },
      {
        "id": 4,
        "question": "Qual è il nuovo nome dell'azienda responsabile della gestione di Snapchat ?",
        "propositions": [
          "Snap Inc.",
          "Enbridge",
          "Celestia",
          "Brady"
        ],
        "réponse": "Snap Inc.",
        "anecdote": "Snapchat Inc. è stata fondata a settembre 2011, il mese che ha lanciato Snapchat su App Store."
      },
      {
        "id": 5,
        "question": "Quale elemento di Snapchat è stato modificato all'inizio di febbraio 2018 ?",
        "propositions": [
          "Pubblicità",
          "Interfaccia",
          "Prezzo",
          "CEO"
        ],
        "réponse": "Interfaccia",
        "anecdote": "È stata lanciata una petizione con oltre un milione di firme per rivendicare il ritorno alla vecchia versione."
      },
      {
        "id": 6,
        "question": "In quali ambienti è disponibile l'applicazione Snapchat ?",
        "propositions": [
          "Android e Windows",
          "IOS e Android",
          "IOS e Palm",
          "Windows e IOS"
        ],
        "réponse": "IOS e Android",
        "anecdote": "A seguito dell'hacking subito da Snapchat il 31 dicembre 2013, l'applicazione non è più disponibile su Windows Phone."
      },
      {
        "id": 7,
        "question": "Di che colore è più spesso associato a Snapchat ?",
        "propositions": [
          "Giallo",
          "Blu",
          "Rosso",
          "Verde"
        ],
        "réponse": "Giallo",
        "anecdote": "Il fantasma su uno sfondo giallo consente di identificare immediatamente un utente che si connette al social network Snapchat."
      },
      {
        "id": 8,
        "question": "In quale stato degli Stati Uniti è stata sviluppata l'app Snapchat ?",
        "propositions": [
          "Montana",
          "California",
          "Texas",
          "Ohio"
        ],
        "réponse": "California",
        "anecdote": "L'economia della California rappresenta il 13 percento del PIL degli Stati Uniti e si ritiene che sia la sesta economia del mondo."
      },
      {
        "id": 9,
        "question": "Qual è la durata minima di un post su Snapchat ?",
        "propositions": [
          "6 secondi",
          "1 secondo",
          "10 secondi",
          "10 secondi"
        ],
        "réponse": "1 secondo",
        "anecdote": "Questo periodo di tempo è in realtà da uno a dieci secondi, ma anche, da poco tempo, nessun limite di tempo."
      },
      {
        "id": 10,
        "question": "Quale piattaforma Snapchat è stata lanciata per prima ?",
        "propositions": [
          "Apple Store",
          "F-Droid",
          "Google Play",
          "Negozio Ovi"
        ],
        "réponse": "Apple Store",
        "anecdote": "L'app Snapchat è stata lanciata nel settembre 2011 sull'App Store di Apple e nel novembre 2012 su Android."
      }
    ],
    "confirmé": [
      {
        "id": 11,
        "question": "Qual è l'età richiesta per scaricare e utilizzare l'app Snapchat ?",
        "propositions": [
          "15 anni",
          "13 anni",
          "21 anni",
          "17 anni"
        ],
        "réponse": "13 anni",
        "anecdote": "La particolarità di questa applicazione è l'esistenza di un limite di tempo per la visualizzazione dei media inviati ai suoi destinatari."
      },
      {
        "id": 12,
        "question": "Quanti scatti vengono scambiati ogni giorno nel mondo ?",
        "propositions": [
          "250 milioni",
          "450 milioni",
          "150 milioni",
          "350 milioni"
        ],
        "réponse": "350 milioni",
        "anecdote": "Dal 2014 è stata inserita una chat nell'applicazione e un rilevatore di presenza per chattare in diretta tramite videocamera."
      },
      {
        "id": 13,
        "question": "Quanto tempo gli utenti trascorrono ogni giorno su Snapchat ?",
        "propositions": [
          "2 ore",
          "1 ora",
          "3 ore",
          "30 minuti"
        ],
        "réponse": "30 minuti",
        "anecdote": "Snapchat ha funzionalità divertenti e interattive che rendono facile per i social booker utilizzare il social network ogni giorno."
      },
      {
        "id": 14,
        "question": "Chi è diventato miliardario all'età di 24 anni grazie a Snapchat ?",
        "propositions": [
          "Evan Spiegel",
          "Jeff Bezos",
          "Paul Allen",
          "Tom Golisano"
        ],
        "réponse": "Evan Spiegel",
        "anecdote": "Evan Thomas Spiegel ha una relazione con la modella Miranda Kerr dal 2015, con la quale diventerà presto papà."
      },
      {
        "id": 15,
        "question": "Quanto ha proposto Facebook per l'acquisizione di Snapchat ?",
        "propositions": [
          "1 miliardo",
          "3 miliardi",
          "5 miliardi",
          "7 miliardi"
        ],
        "réponse": "3 miliardi",
        "anecdote": "Si dice anche che Snapchat abbia rifiutato due offerte da $ 4 miliardi, una da Tencent, l'altra da Google."
      },
      {
        "id": 16,
        "question": "Quanti milioni di abbonati attivi sono stati conteggiati da Snapchat nel 2015 ?",
        "propositions": [
          "50",
          "150",
          "100",
          "200"
        ],
        "réponse": "200",
        "anecdote": "Nel 2015, Snapchat ha registrato la sua crescita più forte, registrando una crescita del 55 %, soprattutto favorita dalla pubblicità degli inserzionisti."
      },
      {
        "id": 17,
        "question": "Quali funzionalità possono archiviare gli snap in uno spazio privato ?",
        "propositions": [
          "iCloud",
          "Snapme",
          "Mysnap",
          "Ricordi"
        ],
        "réponse": "Ricordi",
        "anecdote": "Il contenuto così salvato può essere cercato per data o utilizzando un sistema di riconoscimento di oggetti locali."
      },
      {
        "id": 18,
        "question": "Da quando Snap Map è stato in grado di localizzare gli amici ?",
        "propositions": [
          "2016",
          "2015",
          "2018",
          "2017"
        ],
        "réponse": "2017",
        "anecdote": "Gli amici sono simbolizzati dalla loro rappresentazione in Actionmoji (o un personaggio standard se non hanno creato Bitmoji)."
      },
      {
        "id": 19,
        "question": "Qual è stato il numero medio di utenti al giorno di Snapchat nel 2017 ?",
        "propositions": [
          "166 milioni",
          "146 milioni",
          "106 milioni",
          "126 milioni"
        ],
        "réponse": "166 milioni",
        "anecdote": "Le applicazioni di social network sono spesso selezionate per lo sfruttamento commerciale dei dati personali."
      },
      {
        "id": 20,
        "question": "A che ora del giorno si genera un aumento nell'uso di Snapchat ?",
        "propositions": [
          "Mattina",
          "Fine giornata",
          "Notte",
          "Midi"
        ],
        "réponse": "Fine giornata",
        "anecdote": "Il 35 % degli utenti di Snapchat non finisce lo stesso giorno in una chat istantanea da un'altra rete."
      }
    ],
    "expert": [
      {
        "id": 21,
        "question": "A quale percentuale delle entrate di Snapchat contribuiscono gli Stati Uniti ?",
        "propositions": [
          "75 %",
          "95 %",
          "65 %",
          "85 %"
        ],
        "réponse": "95 %",
        "anecdote": "Le entrate pubblicitarie di Snapchat hanno raggiunto $ 366 milioni nel 2016 e dovrebbero aumentare ulteriormente."
      },
      {
        "id": 22,
        "question": "Con quale servizio di pagamento è associato Snapchat dal 2014 ?",
        "propositions": [
          "Bitcoin",
          "Square",
          "PayPal",
          "O-Secure"
        ],
        "réponse": "Square",
        "anecdote": "Offre agli utenti del servizio di posta elettronica uno strumento per scambiarsi denaro : Snapcash."
      },
      {
        "id": 23,
        "question": "Quale paio di occhiali da sole collegati è stato lanciato da Snap Inc. ?",
        "propositions": [
          "Odissea",
          "Mobisun",
          "Connect Eyes",
          "Spettacoli"
        ],
        "réponse": "Spettacoli",
        "anecdote": "Collegati in bluetooth con videocamera integrata, questi occhiali possono girare video con un angolo di 115 gradi."
      },
      {
        "id": 24,
        "question": "In quale linguaggio di programmazione è principalmente scritto Snapchat ?",
        "propositions": [
          "Cobol",
          "Delfi",
          "HTML",
          "Java"
        ],
        "réponse": "Java",
        "anecdote": "Java è un linguaggio di programmazione orientato agli oggetti creato da due dipendenti di Sun Microsystems, James Gosling e Patrick Naughton."
      },
      {
        "id": 25,
        "question": "Quale piattaforma Snapchat ospita canali specifici dell'applicazione ?",
        "propositions": [
          "Picaboo",
          "Scopri",
          "Ricordi",
          "Spettacoli"
        ],
        "réponse": "Scopri",
        "anecdote": "Undici migliori partner come MTV, CNN o canali di feed National Geographic con contenuti esclusivi."
      },
      {
        "id": 26,
        "question": "In quale anno Snapchat è diventato vittima di un significativo hacking il 31 dicembre ?",
        "propositions": [
          "2016",
          "2013",
          "2014",
          "2015"
        ],
        "réponse": "2013",
        "anecdote": "Come risultato di questi attacchi, Snapchat ha deciso di rimuovere tutte le applicazioni di terze parti dai negozi (6snap, SaveMySnap, ...)."
      },
      {
        "id": 27,
        "question": "Come è stata originariamente chiamata l'app Snapchat ?",
        "propositions": [
          "Paola",
          "Ester",
          "Sigrid",
          "Picaboo"
        ],
        "réponse": "Picaboo",
        "anecdote": "Mentre studente di design a Stanford, Evan Thomas offre Snapchat, originariamente un progetto di classe di cui diventerà CEO."
      },
      {
        "id": 28,
        "question": "Chi completa il trio Snapchat al fianco di Evan Spiegel e Bobby Murphy ?",
        "propositions": [
          "Reggie Brown",
          "Jim Walton",
          "Gabe Newell",
          "Mark Cuban"
        ],
        "réponse": "Reggie Brown",
        "anecdote": "Franck Reginald Brown è il primo che inizialmente ha pensato di creare un'applicazione che ti consentisse di inviare foto effimere."
      },
      {
        "id": 29,
        "question": "Quale applicazione per prenotare gite è stata acquistata da Snapchat ?",
        "propositions": [
          "Vurb",
          "Iscriviti",
          "Successivo",
          "Parco"
        ],
        "réponse": "Vurb",
        "anecdote": "Nell'agosto 2016, Snapchat ha acquistato l'app Vurb per $ 110 milioni, il che consente di prenotare servizi locali."
      },
      {
        "id": 30,
        "question": "Quanto è stato valutato il business di Snapchat nel 2017 ?",
        "propositions": [
          "34 miliardi",
          "4 miliardi",
          "24 miliardi",
          "14 miliardi"
        ],
        "réponse": "24 miliardi",
        "anecdote": "Uno dei primi driver prestazionali di Snapchat è il suo elevato fatturato, calcolato in milioni di dollari."
      }
    ]
    },
    "nl": {
      "débutant": [
      {
        "id": 1,
        "question": "Wat is het logo van de Snapchat mobiele app ?",
        "propositions": [
          "Fantême",
          "Aap",
          "Beer",
          "Camera"
        ],
        "réponse": "Fantême",
        "anecdote": "Snapchat kan door iedereen worden gezien, alleen voor vrienden of voor iedereen (de zogenaamde ghost-modus)."
      },
      {
        "id": 2,
        "question": "Welke Snapchat-tool wordt sinds 2014 gebruikt om geld te verzenden ?",
        "propositions": [
          "Snapcoin",
          "Snapmoney",
          "Snapsend",
          "Snapcash"
        ],
        "réponse": "Snapcash",
        "anecdote": "De wil van Snapchat om zijn gebruikers te behouden, zijn onlangs vele bijbehorende diensten voorgesteld."
      },
      {
        "id": 3,
        "question": "Wat is de leeftijdscategorie van 85 % van Snapchat-gebruikers ?",
        "propositions": [
          "47 tot 59 jaar",
          "35 tot 46 jaar",
          "60 tot 78 jaar",
          "13 tot 34 jaar"
        ],
        "réponse": "13 tot 34 jaar",
        "anecdote": "Het snelle en snelle gebruik van de opties van Snapchat trekt meer jonge mensen aan dan oudere gebruikers."
      },
      {
        "id": 4,
        "question": "Wat is de nieuwe naam van het bedrijf dat verantwoordelijk is voor het beheer van Snapchat ?",
        "propositions": [
          "Brady",
          "Celestia",
          "Enbridge",
          "Snap Inc."
        ],
        "réponse": "Snap Inc.",
        "anecdote": "Snapchat Inc. werd opgericht in september 2011, de maand waarin Snapchat in de App Store werd gelanceerd."
      },
      {
        "id": 5,
        "question": "Welk element van Snapchat werd begin februari 2018 gewijzigd ?",
        "propositions": [
          "Prijs",
          "CEO",
          "Reclame",
          "Interface"
        ],
        "réponse": "Interface",
        "anecdote": "Een petitie met meer dan een miljoen handtekeningen werd gelanceerd om de terugkeer naar de oude versie te claimen."
      },
      {
        "id": 6,
        "question": "In welke omgevingen is de Snapchat-applicatie beschikbaar ?",
        "propositions": [
          "IOS en Android",
          "IOS en Palm",
          "Windows en IOS",
          "Android en Windows"
        ],
        "réponse": "IOS en Android",
        "anecdote": "Na het hacken dat Snapchat leed op 31 december 2013, is de applicatie niet langer beschikbaar onder Windows Phone."
      },
      {
        "id": 7,
        "question": "Welke kleur wordt meestal geassocieerd met Snapchat ?",
        "propositions": [
          "Groen",
          "Geel",
          "Rood",
          "Blauw"
        ],
        "réponse": "Geel",
        "anecdote": "De geest op een gele achtergrond maakt het mogelijk om onmiddellijk een gebruiker te identificeren die verbinding maakt met het Snapchat sociale netwerk."
      },
      {
        "id": 8,
        "question": "In welke staat van de Verenigde Staten is de Snapchat-app ontwikkeld ?",
        "propositions": [
          "Montana",
          "Ohio",
          "Californië",
          "Texas"
        ],
        "réponse": "Californië",
        "anecdote": "De economie van Californië is goed voor 13 procent van het Amerikaanse bbp en wordt beschouwd als de zesde grootste economie ter wereld."
      },
      {
        "id": 9,
        "question": "Wat is de minimale duur van een Snapchat-bericht ?",
        "propositions": [
          "1 seconde",
          "10 seconden",
          "10 seconden",
          "6 seconden"
        ],
        "réponse": "1 seconde",
        "anecdote": "Deze periode is eigenlijk één tot tien seconden, maar sinds kort ook geen tijdslimiet."
      },
      {
        "id": 10,
        "question": "Welk Snapchat-platform werd als eerste gelanceerd ?",
        "propositions": [
          "F-Droid",
          "Google Play",
          "Apple Store",
          "Ovi Winkel"
        ],
        "réponse": "Apple Store",
        "anecdote": "De Snapchat-app werd gelanceerd in september 2011 in de Apple App Store en in november 2012 op Android."
      }
    ],
    "confirmé": [
      {
        "id": 11,
        "question": "Wat is de vereiste leeftijd om de Snapchat-app te downloaden en te gebruiken ?",
        "propositions": [
          "21 jaar oud",
          "13 jaar oud",
          "17 jaar oud",
          "15 jaar oud"
        ],
        "réponse": "13 jaar oud",
        "anecdote": "Het bijzondere van deze applicatie is het bestaan van een tijdslimiet voor het bekijken van de media die naar de ontvangers zijn verzonden."
      },
      {
        "id": 12,
        "question": "Hoeveel snaps worden er elke dag op de wereld uitgewisseld ?",
        "propositions": [
          "250 miljoen",
          "450 miljoen",
          "150 miljoen",
          "350 miljoen"
        ],
        "réponse": "350 miljoen",
        "anecdote": "Sinds 2014 is een chat in de applicatie geplaatst en een aanwezigheidsmelder om live via de camera te chatten."
      },
      {
        "id": 13,
        "question": "Hoeveel tijd besteden gebruikers elke dag aan Snapchat ?",
        "propositions": [
          "3 uur",
          "2 uur",
          "30 minuten",
          "1 uur"
        ],
        "réponse": "30 minuten",
        "anecdote": "Snapchat heeft leuke en interactieve functies die het voor sociale boekers gemakkelijk maken om het sociale netwerk elke dag te gebruiken."
      },
      {
        "id": 14,
        "question": "Wie werd er op 24-jarige leeftijd miljardair dankzij Snapchat ?",
        "propositions": [
          "Paul Allen",
          "Tom Golisano",
          "Evan Spiegel",
          "Jeff Bezos"
        ],
        "réponse": "Evan Spiegel",
        "anecdote": "Evan Thomas Spiegel heeft sinds 2015 een relatie met model Miranda Kerr, met wie hij binnenkort vader wordt."
      },
      {
        "id": 15,
        "question": "Hoeveel Facebook heeft hij voorgesteld voor de overname van Snapchat ?",
        "propositions": [
          "1 miljard",
          "7 miljard",
          "5 miljard",
          "3 miljard"
        ],
        "réponse": "3 miljard",
        "anecdote": "Snapchat zou ook twee aanbiedingen van $ 4 miljard hebben afgewezen, één van Tencent, de andere van Google."
      },
      {
        "id": 16,
        "question": "Hoeveel miljoenen actieve abonnees werd Snapchat in 2015 geteld ?",
        "propositions": [
          "100",
          "150",
          "50",
          "200"
        ],
        "réponse": "200",
        "anecdote": "In 2015 kende Snapchat de sterkste groei, met 55 % groei, vooral gestimuleerd door advertenties van adverteerders."
      },
      {
        "id": 17,
        "question": "Welke functionaliteit kan snaps in een privéruimte opslaan ?",
        "propositions": [
          "iCloud",
          "Snapme",
          "Herinneringen",
          "Mysnap"
        ],
        "réponse": "Herinneringen",
        "anecdote": "De aldus opgeslagen inhoud kan worden doorzocht op datum of met behulp van een lokaal objectherkenningssysteem."
      },
      {
        "id": 18,
        "question": "Sinds wanneer kan Snap Map vrienden vinden ?",
        "propositions": [
          "2018",
          "2016",
          "2015",
          "2017"
        ],
        "réponse": "2017",
        "anecdote": "Vrienden worden gesymboliseerd door hun weergave in Actionmoji (of een standaardpersonage als ze geen Bitmoji hebben gemaakt)."
      },
      {
        "id": 19,
        "question": "Wat was het gemiddelde aantal gebruikers per dag van Snapchat in 2017 ?",
        "propositions": [
          "106 miljoen",
          "166 miljoen",
          "126 miljoen",
          "146 miljoen"
        ],
        "réponse": "166 miljoen",
        "anecdote": "Toepassingen voor sociale netwerken worden vaak onderscheiden voor commerciële exploitatie van persoonlijke gegevens."
      },
      {
        "id": 20,
        "question": "Op welk tijdstip van de dag stijgt het gebruik van Snapchat ?",
        "propositions": [
          "Nacht",
          "Ochtend",
          "Midi",
          "Einde van de dag"
        ],
        "réponse": "Einde van de dag",
        "anecdote": "35 % van de Snapchat-gebruikers belandt niet op dezelfde dag in een instant chat van een ander netwerk."
      }
    ],
    "expert": [
      {
        "id": 21,
        "question": "Aan welk percentage van de inkomsten van Snapchat dragen de VS bij ?",
        "propositions": [
          "85 %",
          "75 %",
          "95 %",
          "65 %"
        ],
        "réponse": "95 %",
        "anecdote": "De advertentie-inkomsten van Snapchat bereikten in 2016 $ 366 miljoen en zullen naar verwachting verder toenemen."
      },
      {
        "id": 22,
        "question": "Aan welke betalingsservice is Snapchat sinds 2014 verbonden ?",
        "propositions": [
          "PayPal",
          "O-Secure",
          "Bitcoin",
          "Vierkant"
        ],
        "réponse": "Vierkant",
        "anecdote": "Het biedt gebruikers van de e-mailservice een tool om geld naar elkaar te verzenden : Snapcash."
      },
      {
        "id": 23,
        "question": "Welk aangesloten zonnebril werd door Snap Inc. gelanceerd ?",
        "propositions": [
          "Verbind Eyes",
          "Toont",
          "Mobisun",
          "Odyssey"
        ],
        "réponse": "Toont",
        "anecdote": "Verbonden in bluetooth met ingebouwde camcorder, kan deze bril video's maken met een hoek van 115 graden."
      },
      {
        "id": 24,
        "question": "In welke programmeertaal wordt voornamelijk Snapchat geschreven ?",
        "propositions": [
          "Cobol",
          "HTML",
          "Java",
          "Delphi"
        ],
        "réponse": "Java",
        "anecdote": "Java is een objectgeoriënteerde programmeertaal gemaakt door twee medewerkers van Sun Microsystems, James Gosling en Patrick Naughton."
      },
      {
        "id": 25,
        "question": "Welk Snapchat-platform host applicatiespecifieke kanalen ?",
        "propositions": [
          "Picaboo",
          "Toont",
          "Ontdek",
          "Herinneringen"
        ],
        "réponse": "Ontdek",
        "anecdote": "Elf toppartners zoals MTV, CNN of National Geographic-feedkanalen met exclusieve inhoud."
      },
      {
        "id": 26,
        "question": "In welk jaar werd Snapchat op 31 december het slachtoffer van aanzienlijke hacking ?",
        "propositions": [
          "2016",
          "2013",
          "2014",
          "2015"
        ],
        "réponse": "2013",
        "anecdote": "Als gevolg van deze aanvallen heeft Snapchat besloten alle applicaties van derden uit de winkels te laten verwijderen (6snap, SaveMySnap, ...)."
      },
      {
        "id": 27,
        "question": "Hoe heette de Snapchat-app oorspronkelijk ?",
        "propositions": [
          "Paola",
          "Sigrid",
          "Picaboo",
          "Ester"
        ],
        "réponse": "Picaboo",
        "anecdote": "Terwijl hij student design is aan Stanford, biedt Evan Thomas Snapchat aan, oorspronkelijk een klassenproject waarvan hij CEO wordt."
      },
      {
        "id": 28,
        "question": "Wie voltooit het Snapchat-trio naast Evan Spiegel en Bobby Murphy ?",
        "propositions": [
          "Mark Cuban",
          "Jim Walton",
          "Reggie Brown",
          "Gabe Newell"
        ],
        "réponse": "Reggie Brown",
        "anecdote": "Franck Reginald Brown is de eerste die oorspronkelijk dacht aan het maken van een applicatie waarmee u kortstondige foto's kunt verzenden."
      },
      {
        "id": 29,
        "question": "Welke applicatie om uitjes te boeken is gekocht door Snapchat ?",
        "propositions": [
          "Vurb",
          "Park",
          "Teken",
          "Volgende"
        ],
        "réponse": "Vurb",
        "anecdote": "In augustus 2016 kocht Snapchat de Vurb-app voor $ 110 miljoen, waardoor het mogelijk is om lokale services te reserveren."
      },
      {
        "id": 30,
        "question": "Hoeveel werd het Snapchat-bedrijf gewaardeerd in 2017 ?",
        "propositions": [
          "24 miljard",
          "14 miljard",
          "4 miljard",
          "34 miljard"
        ],
        "réponse": "24 miljard",
        "anecdote": "Een van Snapchat's eerste prestatiedrivers is de hoge omzet, berekend in miljoenen dollars."
      }
    ]
    }
  }
}