[{
        "relation": ["delegate_permission/common.handle_all_urls"],
        "target" : { "namespace": "android_app", "package_name": "org.directquiz.twa",
                     "sha256_cert_fingerprints": ["D3:F1:09:69:80:C1:C5:03:A1:7B:3C:58:00:3B:BB:8C:0E:61:D4:28:5C:3B:E5:70:A7:36:83:97:E6:23:DA:A7"] }
      }
]